num_zumbis data hora
0 2012-04-24 11:55:56
0 2012-04-24 11:56:05
0 2012-04-24 11:57:05
0 2012-04-24 11:58:05
0 2012-04-24 11:59:05
0 2012-04-24 12:00:05
0 2012-04-24 12:01:05
0 2012-04-24 12:02:05
0 2012-04-24 12:03:05
0 2012-04-24 12:04:05
0 2012-04-24 12:05:10
0 2012-04-24 12:06:05
0 2012-04-24 12:07:05
0 2012-04-24 12:08:05
0 2012-04-24 12:09:05
0 2012-04-24 12:10:05
0 2012-04-24 12:11:05
0 2012-04-24 12:12:05
0 2012-04-24 12:13:05
0 2012-04-24 12:14:05
0 2012-04-24 12:15:05
0 2012-04-24 12:16:05
0 2012-04-24 12:17:05
0 2012-04-24 12:18:05
0 2012-04-24 12:19:05
0 2012-04-24 12:20:05
0 2012-04-24 12:21:05
0 2012-04-24 12:22:05
0 2012-04-24 12:23:05
0 2012-04-24 12:24:05
0 2012-04-24 12:25:05
0 2012-04-24 12:26:05
0 2012-04-24 12:27:05
0 2012-04-24 12:28:05
0 2012-04-24 12:29:05
0 2012-04-24 12:30:05
0 2012-04-24 12:31:05
0 2012-04-24 12:32:05
0 2012-04-24 12:33:05
0 2012-04-24 12:34:05
0 2012-04-24 12:35:05
0 2012-04-24 12:36:05
0 2012-04-24 12:37:05
0 2012-04-24 12:38:05
0 2012-04-24 12:39:05
0 2012-04-24 12:40:05
1 2012-04-24 12:41:05
0 2012-04-24 12:42:05
0 2012-04-24 12:43:05
0 2012-04-24 12:44:05
0 2012-04-24 12:45:05
0 2012-04-24 12:46:05
0 2012-04-24 12:47:05
0 2012-04-24 12:48:05
0 2012-04-24 12:49:05
0 2012-04-24 12:50:05
0 2012-04-24 12:51:05
0 2012-04-24 12:52:05
0 2012-04-24 12:53:05
0 2012-04-24 12:54:05
0 2012-04-24 12:55:05
0 2012-04-24 12:56:05
0 2012-04-24 12:57:05
0 2012-04-24 12:58:05
0 2012-04-24 12:59:05
0 2012-04-24 13:00:05
0 2012-04-24 13:01:05
0 2012-04-24 13:02:05
0 2012-04-24 13:03:05
0 2012-04-24 13:04:05
0 2012-04-24 13:05:05
0 2012-04-24 13:06:05
0 2012-04-24 13:07:05
0 2012-04-24 13:08:05
0 2012-04-24 13:09:05
0 2012-04-24 13:10:05
0 2012-04-24 13:11:05
0 2012-04-24 13:12:05
0 2012-04-24 13:13:05
0 2012-04-24 13:14:05
0 2012-04-24 13:15:05
0 2012-04-24 13:16:05
0 2012-04-24 13:17:05
0 2012-04-24 13:18:05
0 2012-04-24 13:19:05
0 2012-04-24 13:20:05
0 2012-04-24 13:21:05
0 2012-04-24 13:22:05
0 2012-04-24 13:23:05
0 2012-04-24 13:24:05
0 2012-04-24 13:25:05
0 2012-04-24 13:26:05
0 2012-04-24 13:27:05
0 2012-04-24 13:28:05
0 2012-04-24 13:29:05
0 2012-04-24 13:30:05
0 2012-04-24 13:31:05
0 2012-04-24 13:32:05
0 2012-04-24 13:33:05
0 2012-04-24 13:34:05
0 2012-04-24 13:35:05
0 2012-04-24 13:36:05
0 2012-04-24 13:37:05
0 2012-04-24 13:38:05
0 2012-04-24 13:39:05
0 2012-04-24 13:40:05
0 2012-04-24 13:41:05
0 2012-04-24 13:42:05
0 2012-04-24 13:43:05
0 2012-04-24 13:44:05
0 2012-04-24 13:45:05
0 2012-04-24 13:46:05
0 2012-04-24 13:47:05
2 2012-04-24 13:48:05
0 2012-04-24 13:49:05
0 2012-04-24 13:50:05
0 2012-04-24 13:51:05
0 2012-04-24 13:52:05
0 2012-04-24 13:53:05
0 2012-04-24 13:54:05
0 2012-04-24 13:55:05
0 2012-04-24 13:56:05
0 2012-04-24 13:57:05
0 2012-04-24 13:58:05
0 2012-04-24 13:59:05
0 2012-04-24 14:00:05
0 2012-04-24 14:01:05
0 2012-04-24 14:02:05
0 2012-04-24 14:03:05
0 2012-04-24 14:04:05
0 2012-04-24 14:05:05
1 2012-04-24 14:06:05
0 2012-04-24 14:07:05
0 2012-04-24 14:08:05
0 2012-04-24 14:09:05
0 2012-04-24 14:10:05
0 2012-04-24 14:11:05
0 2012-04-24 14:12:05
0 2012-04-24 14:13:05
0 2012-04-24 14:14:05
2 2012-04-24 14:15:05
0 2012-04-24 14:16:05
0 2012-04-24 14:17:05
0 2012-04-24 14:18:05
0 2012-04-24 14:19:05
0 2012-04-24 14:20:05
0 2012-04-24 14:21:05
1 2012-04-24 14:22:05
0 2012-04-24 14:23:05
0 2012-04-24 14:24:05
0 2012-04-24 14:25:05
0 2012-04-24 14:26:05
0 2012-04-24 14:27:05
0 2012-04-24 14:28:05
0 2012-04-24 14:29:05
0 2012-04-24 14:30:05
0 2012-04-24 14:31:05
0 2012-04-24 14:32:05
0 2012-04-24 14:33:05
0 2012-04-24 14:34:05
0 2012-04-24 14:35:05
0 2012-04-24 14:36:05
0 2012-04-24 14:37:05
0 2012-04-24 14:38:05
0 2012-04-24 14:39:05
0 2012-04-24 14:40:05
0 2012-04-24 14:41:05
0 2012-04-24 14:42:05
0 2012-04-24 14:43:05
0 2012-04-24 14:44:05
0 2012-04-24 14:45:05
0 2012-04-24 14:46:05
0 2012-04-24 14:47:05
0 2012-04-24 14:48:05
0 2012-04-24 14:49:05
0 2012-04-24 14:50:05
0 2012-04-24 14:51:05
0 2012-04-24 14:52:05
0 2012-04-24 14:53:05
0 2012-04-24 14:54:05
0 2012-04-24 14:55:05
1 2012-04-24 14:56:05
0 2012-04-24 14:57:05
0 2012-04-24 14:58:05
0 2012-04-24 14:59:05
0 2012-04-24 15:00:05
0 2012-04-24 15:01:05
0 2012-04-24 15:02:05
0 2012-04-24 15:03:05
0 2012-04-24 15:04:05
0 2012-04-24 15:05:05
0 2012-04-24 15:06:05
0 2012-04-24 15:07:05
0 2012-04-24 15:08:05
0 2012-04-24 15:09:05
0 2012-04-24 15:10:05
1 2012-04-24 15:11:05
0 2012-04-24 15:12:05
0 2012-04-24 15:13:05
0 2012-04-24 15:14:05
0 2012-04-24 15:15:05
0 2012-04-24 15:16:05
0 2012-04-24 15:17:05
0 2012-04-24 15:18:05
0 2012-04-24 15:19:05
0 2012-04-24 15:20:05
0 2012-04-24 15:21:05
0 2012-04-24 15:22:05
0 2012-04-24 15:23:05
0 2012-04-24 15:24:05
0 2012-04-24 15:25:05
0 2012-04-24 15:26:05
0 2012-04-24 15:27:05
0 2012-04-24 15:28:05
0 2012-04-24 15:29:05
0 2012-04-24 15:30:05
0 2012-04-24 15:31:05
0 2012-04-24 15:32:05
0 2012-04-24 15:33:05
0 2012-04-24 15:34:05
0 2012-04-24 15:35:05
0 2012-04-24 15:36:05
0 2012-04-24 15:37:05
0 2012-04-24 15:38:05
0 2012-04-24 15:39:05
0 2012-04-24 15:40:05
0 2012-04-24 15:41:05
0 2012-04-24 15:42:05
0 2012-04-24 15:43:05
0 2012-04-24 15:44:05
0 2012-04-24 15:45:05
0 2012-04-24 15:46:05
0 2012-04-24 15:47:05
1 2012-04-24 15:48:05
0 2012-04-24 15:49:05
0 2012-04-24 15:50:05
0 2012-04-24 15:51:05
0 2012-04-24 15:52:05
0 2012-04-24 15:53:05
0 2012-04-24 15:54:05
0 2012-04-24 15:55:05
0 2012-04-24 15:56:05
0 2012-04-24 15:57:05
0 2012-04-24 15:58:05
0 2012-04-24 15:59:05
0 2012-04-24 16:00:05
0 2012-04-24 16:01:05
0 2012-04-24 16:02:05
0 2012-04-24 16:03:05
0 2012-04-24 16:04:05
0 2012-04-24 16:05:05
0 2012-04-24 16:06:05
0 2012-04-24 16:07:05
0 2012-04-24 16:08:05
0 2012-04-24 16:09:05
0 2012-04-24 16:10:05
0 2012-04-24 16:11:05
0 2012-04-24 16:12:05
0 2012-04-24 16:13:05
0 2012-04-24 16:14:05
0 2012-04-24 16:15:05
0 2012-04-24 16:16:05
0 2012-04-24 16:17:05
0 2012-04-24 16:18:05
0 2012-04-24 16:19:05
0 2012-04-24 16:20:05
0 2012-04-24 16:21:05
0 2012-04-24 16:22:05
0 2012-04-24 16:23:05
0 2012-04-24 16:24:05
0 2012-04-24 16:25:05
0 2012-04-24 16:26:05
0 2012-04-24 16:27:05
0 2012-04-24 16:28:05
0 2012-04-24 16:29:05
0 2012-04-24 16:30:05
0 2012-04-24 16:31:05
0 2012-04-24 16:32:05
0 2012-04-24 16:33:05
0 2012-04-24 16:34:05
0 2012-04-24 16:35:05
0 2012-04-24 16:36:05
0 2012-04-24 16:37:05
0 2012-04-24 16:38:05
0 2012-04-24 16:39:05
0 2012-04-24 16:40:05
0 2012-04-24 16:41:05
0 2012-04-24 16:42:05
0 2012-04-24 16:43:05
0 2012-04-24 16:44:05
0 2012-04-24 16:45:05
0 2012-04-24 16:46:05
0 2012-04-24 16:47:05
0 2012-04-24 16:48:05
0 2012-04-24 16:49:05
0 2012-04-24 16:50:05
0 2012-04-24 16:51:05
0 2012-04-24 16:52:05
1 2012-04-24 16:53:05
0 2012-04-24 16:54:05
0 2012-04-24 16:55:05
0 2012-04-24 16:56:05
0 2012-04-24 16:57:05
0 2012-04-24 16:58:05
0 2012-04-24 16:59:05
0 2012-04-24 17:00:05
0 2012-04-24 17:01:05
0 2012-04-24 17:02:05
0 2012-04-24 17:03:05
0 2012-04-24 17:04:05
0 2012-04-24 17:05:05
0 2012-04-24 17:06:05
0 2012-04-24 17:07:05
0 2012-04-24 17:08:05
0 2012-04-24 17:09:05
0 2012-04-24 17:10:05
0 2012-04-24 17:11:05
0 2012-04-24 17:12:05
0 2012-04-24 17:13:05
0 2012-04-24 17:14:05
0 2012-04-24 17:15:05
0 2012-04-24 17:16:06
0 2012-04-24 17:17:07
0 2012-04-24 17:18:06
0 2012-04-24 17:19:05
0 2012-04-24 17:20:05
0 2012-04-24 17:21:05
0 2012-04-24 17:22:05
0 2012-04-24 17:23:05
0 2012-04-24 17:24:05
0 2012-04-24 17:25:05
0 2012-04-24 17:26:05
0 2012-04-24 17:27:05
0 2012-04-24 17:28:05
0 2012-04-24 17:29:05
0 2012-04-24 17:30:05
0 2012-04-24 17:31:05
0 2012-04-24 17:32:05
0 2012-04-24 17:33:05
0 2012-04-24 17:34:05
0 2012-04-24 17:35:05
0 2012-04-24 17:36:05
0 2012-04-24 17:37:05
0 2012-04-24 17:38:05
0 2012-04-24 17:39:05
0 2012-04-24 17:40:05
0 2012-04-24 17:41:05
0 2012-04-24 17:42:05
0 2012-04-24 17:43:05
0 2012-04-24 17:44:05
0 2012-04-24 17:45:05
0 2012-04-24 17:46:05
0 2012-04-24 17:47:05
0 2012-04-24 17:48:05
0 2012-04-24 17:49:05
0 2012-04-24 17:50:05
0 2012-04-24 17:51:05
0 2012-04-24 17:52:05
0 2012-04-24 17:53:05
0 2012-04-24 17:54:05
0 2012-04-24 17:55:05
0 2012-04-24 17:56:05
0 2012-04-24 17:57:05
0 2012-04-24 17:58:05
0 2012-04-24 17:59:05
0 2012-04-24 18:00:05
0 2012-04-24 18:01:05
0 2012-04-24 18:02:05
0 2012-04-24 18:03:05
0 2012-04-24 18:04:05
0 2012-04-24 18:05:05
0 2012-04-24 18:06:05
0 2012-04-24 18:07:05
0 2012-04-24 18:08:05
0 2012-04-24 18:09:05
0 2012-04-24 18:10:05
0 2012-04-24 18:11:05
0 2012-04-24 18:12:05
0 2012-04-24 18:13:05
0 2012-04-24 18:14:05
0 2012-04-24 18:15:05
0 2012-04-24 18:16:05
0 2012-04-24 18:17:05
0 2012-04-24 18:18:05
0 2012-04-24 18:19:05
0 2012-04-24 18:20:05
0 2012-04-24 18:21:05
0 2012-04-24 18:22:05
0 2012-04-24 18:23:05
0 2012-04-24 18:24:05
0 2012-04-24 18:25:05
0 2012-04-24 18:26:05
0 2012-04-24 18:27:05
0 2012-04-24 18:28:05
0 2012-04-24 18:29:05
0 2012-04-24 18:30:05
0 2012-04-24 18:31:05
0 2012-04-24 18:32:05
0 2012-04-24 18:33:05
0 2012-04-24 18:34:05
0 2012-04-24 18:35:05
0 2012-04-24 18:36:05
0 2012-04-24 18:37:05
0 2012-04-24 18:38:05
0 2012-04-24 18:39:05
0 2012-04-24 18:40:05
0 2012-04-24 18:41:05
0 2012-04-24 18:42:05
0 2012-04-24 18:43:05
1 2012-04-24 18:44:05
0 2012-04-24 18:45:05
0 2012-04-24 18:46:05
0 2012-04-24 18:47:05
0 2012-04-24 18:48:05
0 2012-04-24 18:49:05
0 2012-04-24 18:50:05
0 2012-04-24 18:51:05
0 2012-04-24 18:52:05
0 2012-04-24 18:53:05
0 2012-04-24 18:54:05
0 2012-04-24 18:55:05
0 2012-04-24 18:56:05
0 2012-04-24 18:57:05
0 2012-04-24 18:58:05
0 2012-04-24 18:59:05
0 2012-04-24 19:00:05
0 2012-04-24 19:01:05
0 2012-04-24 19:02:05
0 2012-04-24 19:03:05
0 2012-04-24 19:04:05
0 2012-04-24 19:05:05
0 2012-04-24 19:06:05
0 2012-04-24 19:07:05
0 2012-04-24 19:08:05
0 2012-04-24 19:09:05
0 2012-04-24 19:10:05
0 2012-04-24 19:11:05
0 2012-04-24 19:12:05
0 2012-04-24 19:13:05
0 2012-04-24 19:14:05
0 2012-04-24 19:15:05
0 2012-04-24 19:16:05
0 2012-04-24 19:17:05
0 2012-04-24 19:18:05
0 2012-04-24 19:19:05
0 2012-04-24 19:20:05
0 2012-04-24 19:21:05
0 2012-04-24 19:22:05
0 2012-04-24 19:23:05
0 2012-04-24 19:24:05
0 2012-04-24 19:25:05
0 2012-04-24 19:26:05
0 2012-04-24 19:27:05
0 2012-04-24 19:28:05
0 2012-04-24 19:29:05
0 2012-04-24 19:30:05
0 2012-04-24 19:31:05
0 2012-04-24 19:32:05
0 2012-04-24 19:33:05
0 2012-04-24 19:34:05
0 2012-04-24 19:35:05
0 2012-04-24 19:36:05
0 2012-04-24 19:37:05
0 2012-04-24 19:38:05
0 2012-04-24 19:39:05
0 2012-04-24 19:40:05
0 2012-04-24 19:41:05
0 2012-04-24 19:42:05
0 2012-04-24 19:43:05
0 2012-04-24 19:44:05
0 2012-04-24 19:45:05
0 2012-04-24 19:46:05
0 2012-04-24 19:47:05
0 2012-04-24 19:48:05
0 2012-04-24 19:49:05
0 2012-04-24 19:50:05
0 2012-04-24 19:51:05
0 2012-04-24 19:52:05
0 2012-04-24 19:53:05
0 2012-04-24 19:54:05
0 2012-04-24 19:55:05
0 2012-04-24 19:56:05
0 2012-04-24 19:57:05
0 2012-04-24 19:58:05
0 2012-04-24 19:59:05
0 2012-04-24 20:00:05
0 2012-04-24 20:01:05
0 2012-04-24 20:02:05
0 2012-04-24 20:03:05
0 2012-04-24 20:04:05
0 2012-04-24 20:05:05
0 2012-04-24 20:06:05
0 2012-04-24 20:07:05
0 2012-04-24 20:08:06
0 2012-04-24 20:09:06
0 2012-04-24 20:10:05
0 2012-04-24 20:11:05
0 2012-04-24 20:12:05
0 2012-04-24 20:13:05
0 2012-04-24 20:14:06
0 2012-04-24 20:15:06
0 2012-04-24 20:16:06
0 2012-04-24 20:17:06
0 2012-04-24 20:18:06
0 2012-04-24 20:19:06
0 2012-04-24 20:20:06
0 2012-04-24 20:21:06
0 2012-04-24 20:22:06
0 2012-04-24 20:23:06
3 2012-04-24 20:24:06
0 2012-04-24 20:25:06
0 2012-04-24 20:26:06
0 2012-04-24 20:27:06
0 2012-04-24 20:28:06
0 2012-04-24 20:29:06
0 2012-04-24 20:30:06
0 2012-04-24 20:31:06
0 2012-04-24 20:32:06
0 2012-04-24 20:33:06
0 2012-04-24 20:34:06
0 2012-04-24 20:35:06
0 2012-04-24 20:36:06
0 2012-04-24 20:37:06
0 2012-04-24 20:38:06
0 2012-04-24 20:39:06
0 2012-04-24 20:40:06
0 2012-04-24 20:41:06
0 2012-04-24 20:42:06
0 2012-04-24 20:43:06
0 2012-04-24 20:44:06
2 2012-04-24 20:45:06
0 2012-04-24 20:46:06
0 2012-04-24 20:47:06
0 2012-04-24 20:48:06
0 2012-04-24 20:49:06
0 2012-04-24 20:50:06
0 2012-04-24 20:51:06
0 2012-04-24 20:52:06
0 2012-04-24 20:53:06
0 2012-04-24 20:54:06
0 2012-04-24 20:55:06
0 2012-04-24 20:56:06
2 2012-04-24 20:57:06
0 2012-04-24 20:58:06
0 2012-04-24 20:59:06
0 2012-04-24 21:00:06
0 2012-04-24 21:01:06
0 2012-04-24 21:02:06
0 2012-04-24 21:03:06
0 2012-04-24 21:04:06
0 2012-04-24 21:05:06
0 2012-04-24 21:06:06
0 2012-04-24 21:07:06
0 2012-04-24 21:08:06
0 2012-04-24 21:09:06
0 2012-04-24 21:10:06
0 2012-04-24 21:11:06
0 2012-04-24 21:12:06
0 2012-04-24 21:13:06
0 2012-04-24 21:14:06
0 2012-04-24 21:15:06
0 2012-04-24 21:16:06
0 2012-04-24 21:17:06
0 2012-04-24 21:18:06
0 2012-04-24 21:19:06
0 2012-04-24 21:20:06
0 2012-04-24 21:21:06
0 2012-04-24 21:22:06
0 2012-04-24 21:23:06
1 2012-04-24 21:24:06
0 2012-04-24 21:25:06
0 2012-04-24 21:26:06
0 2012-04-24 21:27:06
0 2012-04-24 21:28:06
0 2012-04-24 21:29:06
0 2012-04-24 21:30:06
0 2012-04-24 21:31:06
0 2012-04-24 21:32:06
0 2012-04-24 21:33:06
0 2012-04-24 21:34:06
0 2012-04-24 21:35:06
0 2012-04-24 21:36:06
0 2012-04-24 21:37:06
0 2012-04-24 21:38:06
0 2012-04-24 21:39:06
0 2012-04-24 21:40:06
0 2012-04-24 21:41:06
0 2012-04-24 21:42:06
0 2012-04-24 21:43:06
0 2012-04-24 21:44:06
0 2012-04-24 21:45:06
0 2012-04-24 21:46:06
0 2012-04-24 21:47:06
0 2012-04-24 21:48:06
0 2012-04-24 21:49:06
0 2012-04-24 21:50:06
0 2012-04-24 21:51:06
0 2012-04-24 21:52:06
0 2012-04-24 21:53:06
0 2012-04-24 21:54:06
0 2012-04-24 21:55:06
0 2012-04-24 21:56:06
0 2012-04-24 21:57:06
0 2012-04-24 21:58:06
0 2012-04-24 21:59:06
0 2012-04-24 22:00:06
0 2012-04-24 22:01:06
0 2012-04-24 22:02:06
0 2012-04-24 22:03:06
0 2012-04-24 22:04:06
0 2012-04-24 22:05:06
0 2012-04-24 22:06:06
0 2012-04-24 22:07:06
0 2012-04-24 22:08:06
0 2012-04-24 22:09:06
0 2012-04-24 22:10:06
0 2012-04-24 22:11:06
0 2012-04-24 22:12:06
0 2012-04-24 22:13:06
0 2012-04-24 22:14:06
0 2012-04-24 22:15:06
0 2012-04-24 22:16:06
0 2012-04-24 22:17:06
0 2012-04-24 22:18:06
0 2012-04-24 22:19:06
0 2012-04-24 22:20:06
0 2012-04-24 22:21:06
0 2012-04-24 22:22:06
0 2012-04-24 22:23:06
0 2012-04-24 22:24:06
0 2012-04-24 22:25:06
0 2012-04-24 22:26:06
0 2012-04-24 22:27:06
0 2012-04-24 22:28:06
0 2012-04-24 22:29:06
0 2012-04-24 22:30:06
0 2012-04-24 22:31:07
0 2012-04-24 22:32:10
0 2012-04-24 22:33:06
0 2012-04-24 22:34:06
0 2012-04-24 22:35:06
0 2012-04-24 22:36:06
0 2012-04-24 22:37:06
0 2012-04-24 22:38:06
0 2012-04-24 22:39:06
0 2012-04-24 22:40:06
0 2012-04-24 22:41:06
0 2012-04-24 22:42:06
0 2012-04-24 22:43:06
0 2012-04-24 22:44:06
0 2012-04-24 22:45:06
0 2012-04-24 22:46:06
0 2012-04-24 22:47:06
0 2012-04-24 22:48:06
0 2012-04-24 22:49:06
0 2012-04-24 22:50:06
0 2012-04-24 22:51:06
0 2012-04-24 22:52:06
0 2012-04-24 22:53:06
0 2012-04-24 22:54:06
0 2012-04-24 22:55:06
0 2012-04-24 22:56:06
0 2012-04-24 22:57:06
0 2012-04-24 22:58:06
0 2012-04-24 22:59:06
0 2012-04-24 23:00:06
0 2012-04-24 23:01:06
0 2012-04-24 23:02:06
0 2012-04-24 23:03:06
0 2012-04-24 23:04:06
0 2012-04-24 23:05:06
0 2012-04-24 23:06:06
0 2012-04-24 23:07:06
0 2012-04-24 23:08:06
0 2012-04-24 23:09:06
0 2012-04-24 23:10:06
0 2012-04-24 23:11:06
0 2012-04-24 23:12:06
0 2012-04-24 23:13:06
0 2012-04-24 23:14:06
0 2012-04-24 23:15:06
0 2012-04-24 23:16:06
0 2012-04-24 23:17:06
0 2012-04-24 23:18:06
0 2012-04-24 23:19:06
0 2012-04-24 23:20:06
0 2012-04-24 23:21:06
0 2012-04-24 23:22:06
0 2012-04-24 23:23:06
0 2012-04-24 23:24:06
0 2012-04-24 23:25:06
0 2012-04-24 23:26:06
0 2012-04-24 23:27:06
0 2012-04-24 23:28:06
0 2012-04-24 23:29:06
0 2012-04-24 23:30:06
0 2012-04-24 23:31:06
0 2012-04-24 23:32:06
0 2012-04-24 23:33:06
0 2012-04-24 23:34:06
0 2012-04-24 23:35:06
0 2012-04-24 23:36:06
0 2012-04-24 23:37:06
0 2012-04-24 23:38:06
0 2012-04-24 23:39:06
0 2012-04-24 23:40:06
0 2012-04-24 23:41:06
0 2012-04-24 23:42:06
0 2012-04-24 23:43:06
0 2012-04-24 23:44:06
0 2012-04-24 23:45:06
0 2012-04-24 23:46:06
0 2012-04-24 23:47:06
1 2012-04-24 23:48:06
0 2012-04-24 23:49:06
0 2012-04-24 23:50:06
0 2012-04-24 23:51:06
0 2012-04-24 23:52:06
1 2012-04-24 23:53:06
0 2012-04-24 23:54:06
0 2012-04-24 23:55:06
0 2012-04-24 23:56:06
0 2012-04-24 23:57:06
0 2012-04-24 23:58:06
0 2012-04-24 23:59:06
0 2012-04-25 00:00:06
0 2012-04-25 00:01:06
0 2012-04-25 00:02:06
0 2012-04-25 00:03:06
0 2012-04-25 00:04:06
0 2012-04-25 00:05:06
0 2012-04-25 00:06:06
0 2012-04-25 00:07:06
0 2012-04-25 00:08:06
0 2012-04-25 00:09:06
0 2012-04-25 00:10:06
0 2012-04-25 00:11:06
0 2012-04-25 00:12:06
0 2012-04-25 00:13:06
0 2012-04-25 00:14:06
0 2012-04-25 00:15:06
0 2012-04-25 00:16:06
0 2012-04-25 00:17:06
0 2012-04-25 00:18:06
0 2012-04-25 00:19:06
0 2012-04-25 00:20:06
0 2012-04-25 00:21:06
1 2012-04-25 00:22:06
0 2012-04-25 00:23:06
0 2012-04-25 00:24:06
0 2012-04-25 00:25:06
0 2012-04-25 00:26:06
0 2012-04-25 00:27:06
0 2012-04-25 00:28:06
0 2012-04-25 00:29:06
0 2012-04-25 00:30:06
0 2012-04-25 00:31:06
0 2012-04-25 00:32:06
0 2012-04-25 00:33:06
0 2012-04-25 00:34:06
0 2012-04-25 00:35:06
0 2012-04-25 00:36:06
0 2012-04-25 00:37:06
0 2012-04-25 00:38:06
0 2012-04-25 00:39:06
0 2012-04-25 00:40:06
0 2012-04-25 00:41:06
0 2012-04-25 00:42:06
0 2012-04-25 00:43:06
0 2012-04-25 00:44:06
0 2012-04-25 00:45:06
1 2012-04-25 00:46:06
0 2012-04-25 00:47:06
0 2012-04-25 00:48:06
0 2012-04-25 00:49:06
0 2012-04-25 00:50:06
0 2012-04-25 00:51:06
0 2012-04-25 00:52:06
0 2012-04-25 00:53:06
0 2012-04-25 00:54:06
0 2012-04-25 00:55:06
0 2012-04-25 00:56:06
0 2012-04-25 00:57:06
0 2012-04-25 00:58:06
0 2012-04-25 00:59:06
0 2012-04-25 01:00:06
0 2012-04-25 01:01:06
0 2012-04-25 01:02:06
0 2012-04-25 01:03:06
0 2012-04-25 01:04:06
0 2012-04-25 01:05:06
0 2012-04-25 01:06:06
0 2012-04-25 01:07:06
0 2012-04-25 01:08:06
0 2012-04-25 01:09:06
1 2012-04-25 01:10:06
0 2012-04-25 01:11:06
0 2012-04-25 01:12:06
0 2012-04-25 01:13:06
0 2012-04-25 01:14:06
0 2012-04-25 01:15:06
0 2012-04-25 01:16:06
0 2012-04-25 01:17:06
0 2012-04-25 01:18:06
0 2012-04-25 01:19:06
0 2012-04-25 01:20:06
0 2012-04-25 01:21:06
0 2012-04-25 01:22:06
0 2012-04-25 01:23:06
0 2012-04-25 01:24:06
0 2012-04-25 01:25:06
0 2012-04-25 01:26:06
0 2012-04-25 01:27:06
0 2012-04-25 01:28:06
1 2012-04-25 01:29:06
0 2012-04-25 01:30:06
0 2012-04-25 01:31:06
0 2012-04-25 01:32:06
0 2012-04-25 01:33:06
0 2012-04-25 01:34:06
0 2012-04-25 01:35:06
3 2012-04-25 01:36:06
0 2012-04-25 01:37:06
0 2012-04-25 01:38:06
0 2012-04-25 01:39:06
0 2012-04-25 01:40:06
0 2012-04-25 01:41:06
0 2012-04-25 01:42:06
0 2012-04-25 01:43:06
0 2012-04-25 01:44:06
0 2012-04-25 01:45:06
1 2012-04-25 01:46:06
0 2012-04-25 01:47:06
0 2012-04-25 01:48:06
0 2012-04-25 01:49:06
0 2012-04-25 01:50:06
0 2012-04-25 01:51:06
0 2012-04-25 01:52:06
0 2012-04-25 01:53:06
0 2012-04-25 01:54:06
0 2012-04-25 01:55:06
0 2012-04-25 01:56:06
0 2012-04-25 01:57:06
0 2012-04-25 01:58:06
0 2012-04-25 01:59:06
0 2012-04-25 02:00:06
0 2012-04-25 02:01:06
0 2012-04-25 02:02:06
0 2012-04-25 02:03:06
0 2012-04-25 02:04:06
0 2012-04-25 02:05:06
0 2012-04-25 02:06:06
0 2012-04-25 02:07:06
0 2012-04-25 02:08:06
0 2012-04-25 02:09:06
0 2012-04-25 02:10:06
0 2012-04-25 02:11:06
0 2012-04-25 02:12:06
0 2012-04-25 02:13:06
0 2012-04-25 02:14:06
0 2012-04-25 02:15:06
0 2012-04-25 02:16:06
0 2012-04-25 02:17:06
0 2012-04-25 02:18:06
0 2012-04-25 02:19:06
0 2012-04-25 02:20:06
0 2012-04-25 02:21:06
0 2012-04-25 02:22:06
0 2012-04-25 02:23:06
0 2012-04-25 02:24:06
0 2012-04-25 02:25:06
1 2012-04-25 02:26:06
0 2012-04-25 02:27:06
0 2012-04-25 02:28:06
1 2012-04-25 02:29:06
0 2012-04-25 02:30:06
0 2012-04-25 02:31:06
0 2012-04-25 02:32:06
0 2012-04-25 02:33:06
0 2012-04-25 02:34:06
0 2012-04-25 02:35:06
0 2012-04-25 02:36:06
0 2012-04-25 02:37:06
0 2012-04-25 02:38:06
0 2012-04-25 02:39:06
0 2012-04-25 02:40:06
0 2012-04-25 02:41:06
0 2012-04-25 02:42:06
0 2012-04-25 02:43:06
0 2012-04-25 02:44:06
0 2012-04-25 02:45:06
0 2012-04-25 02:46:06
0 2012-04-25 02:47:06
1 2012-04-25 02:48:06
0 2012-04-25 02:49:06
0 2012-04-25 02:50:06
0 2012-04-25 02:51:06
0 2012-04-25 02:52:06
0 2012-04-25 02:53:06
0 2012-04-25 02:54:06
0 2012-04-25 02:55:06
0 2012-04-25 02:56:06
0 2012-04-25 02:57:06
0 2012-04-25 02:58:06
0 2012-04-25 02:59:06
0 2012-04-25 03:00:06
0 2012-04-25 03:01:06
0 2012-04-25 03:02:06
0 2012-04-25 03:03:06
0 2012-04-25 03:04:06
0 2012-04-25 03:05:06
0 2012-04-25 03:06:06
0 2012-04-25 03:07:06
0 2012-04-25 03:08:06
0 2012-04-25 03:09:06
0 2012-04-25 03:10:06
0 2012-04-25 03:11:06
0 2012-04-25 03:12:06
0 2012-04-25 03:13:06
0 2012-04-25 03:14:06
0 2012-04-25 03:15:06
0 2012-04-25 03:16:06
0 2012-04-25 03:17:06
0 2012-04-25 03:18:06
0 2012-04-25 03:19:06
0 2012-04-25 03:20:06
0 2012-04-25 03:21:06
0 2012-04-25 03:22:06
0 2012-04-25 03:23:06
0 2012-04-25 03:24:06
0 2012-04-25 03:25:06
0 2012-04-25 03:26:06
0 2012-04-25 03:27:06
0 2012-04-25 03:28:06
0 2012-04-25 03:29:06
0 2012-04-25 03:30:06
0 2012-04-25 03:31:06
0 2012-04-25 03:32:06
0 2012-04-25 03:33:06
0 2012-04-25 03:34:06
0 2012-04-25 03:35:06
0 2012-04-25 03:36:06
0 2012-04-25 03:37:06
1 2012-04-25 03:38:06
0 2012-04-25 03:39:06
0 2012-04-25 03:40:06
0 2012-04-25 03:41:06
0 2012-04-25 03:42:06
0 2012-04-25 03:43:06
0 2012-04-25 03:44:06
0 2012-04-25 03:45:06
0 2012-04-25 03:46:06
0 2012-04-25 03:47:07
0 2012-04-25 03:48:06
0 2012-04-25 03:49:06
0 2012-04-25 03:50:06
0 2012-04-25 03:51:07
0 2012-04-25 03:52:06
0 2012-04-25 03:53:06
0 2012-04-25 03:54:06
0 2012-04-25 03:55:06
0 2012-04-25 03:56:06
0 2012-04-25 03:57:06
0 2012-04-25 03:58:06
0 2012-04-25 03:59:06
0 2012-04-25 04:00:06
0 2012-04-25 04:01:06
0 2012-04-25 04:02:06
0 2012-04-25 04:03:06
0 2012-04-25 04:04:06
0 2012-04-25 04:05:06
0 2012-04-25 04:06:06
0 2012-04-25 04:07:06
0 2012-04-25 04:08:06
0 2012-04-25 04:09:06
0 2012-04-25 04:10:06
0 2012-04-25 04:11:06
0 2012-04-25 04:12:06
0 2012-04-25 04:13:06
0 2012-04-25 04:14:06
0 2012-04-25 04:15:06
0 2012-04-25 04:16:06
0 2012-04-25 04:17:06
0 2012-04-25 04:18:06
0 2012-04-25 04:19:06
0 2012-04-25 04:20:06
0 2012-04-25 04:21:06
0 2012-04-25 04:22:06
0 2012-04-25 04:23:06
0 2012-04-25 04:24:06
0 2012-04-25 04:25:06
0 2012-04-25 04:26:06
1 2012-04-25 04:27:06
0 2012-04-25 04:28:06
0 2012-04-25 04:29:06
0 2012-04-25 04:30:06
0 2012-04-25 04:31:06
0 2012-04-25 04:32:06
0 2012-04-25 04:33:06
0 2012-04-25 04:34:06
0 2012-04-25 04:35:06
0 2012-04-25 04:36:06
0 2012-04-25 04:37:06
0 2012-04-25 04:38:06
0 2012-04-25 04:39:06
0 2012-04-25 04:40:06
0 2012-04-25 04:41:06
0 2012-04-25 04:42:06
0 2012-04-25 04:43:06
0 2012-04-25 04:44:06
0 2012-04-25 04:45:06
0 2012-04-25 04:46:06
0 2012-04-25 04:47:06
0 2012-04-25 04:48:06
0 2012-04-25 04:49:06
0 2012-04-25 04:50:06
0 2012-04-25 04:51:06
0 2012-04-25 04:52:06
0 2012-04-25 04:53:06
0 2012-04-25 04:54:06
0 2012-04-25 04:55:06
0 2012-04-25 04:56:06
0 2012-04-25 04:57:06
0 2012-04-25 04:58:06
0 2012-04-25 04:59:06
0 2012-04-25 05:00:06
0 2012-04-25 05:01:06
0 2012-04-25 05:02:06
0 2012-04-25 05:03:06
0 2012-04-25 05:04:06
0 2012-04-25 05:05:06
0 2012-04-25 05:06:06
0 2012-04-25 05:07:06
0 2012-04-25 05:08:06
0 2012-04-25 05:09:06
0 2012-04-25 05:10:06
0 2012-04-25 05:11:06
0 2012-04-25 05:12:06
0 2012-04-25 05:13:06
0 2012-04-25 05:14:06
0 2012-04-25 05:15:06
0 2012-04-25 05:16:06
0 2012-04-25 05:17:06
0 2012-04-25 05:18:06
0 2012-04-25 05:19:06
0 2012-04-25 05:20:06
0 2012-04-25 05:21:06
0 2012-04-25 05:22:06
0 2012-04-25 05:23:06
0 2012-04-25 05:24:06
0 2012-04-25 05:25:06
0 2012-04-25 05:26:06
0 2012-04-25 05:27:06
0 2012-04-25 05:28:06
0 2012-04-25 05:29:06
0 2012-04-25 05:30:06
0 2012-04-25 05:31:06
0 2012-04-25 05:32:06
0 2012-04-25 05:33:06
0 2012-04-25 05:34:06
0 2012-04-25 05:35:06
0 2012-04-25 05:36:06
0 2012-04-25 05:37:06
0 2012-04-25 05:38:06
0 2012-04-25 05:39:06
0 2012-04-25 05:40:06
0 2012-04-25 05:41:06
0 2012-04-25 05:42:06
0 2012-04-25 05:43:06
0 2012-04-25 05:44:06
0 2012-04-25 05:45:06
0 2012-04-25 05:46:06
0 2012-04-25 05:47:06
0 2012-04-25 05:48:06
0 2012-04-25 05:49:06
0 2012-04-25 05:50:06
0 2012-04-25 05:51:06
0 2012-04-25 05:52:06
0 2012-04-25 05:53:06
0 2012-04-25 05:54:06
0 2012-04-25 05:55:06
0 2012-04-25 05:56:06
0 2012-04-25 05:57:06
0 2012-04-25 05:58:06
0 2012-04-25 05:59:06
0 2012-04-25 06:00:06
0 2012-04-25 06:01:06
0 2012-04-25 06:02:06
0 2012-04-25 06:03:06
0 2012-04-25 06:04:06
0 2012-04-25 06:05:06
0 2012-04-25 06:06:06
0 2012-04-25 06:07:06
0 2012-04-25 06:08:06
0 2012-04-25 06:09:06
0 2012-04-25 06:10:06
0 2012-04-25 06:11:06
0 2012-04-25 06:12:06
0 2012-04-25 06:13:06
0 2012-04-25 06:14:06
0 2012-04-25 06:15:06
0 2012-04-25 06:16:06
0 2012-04-25 06:17:06
0 2012-04-25 06:18:06
0 2012-04-25 06:19:06
0 2012-04-25 06:20:06
0 2012-04-25 06:21:06
0 2012-04-25 06:22:06
0 2012-04-25 06:23:06
0 2012-04-25 06:24:06
0 2012-04-25 06:25:06
1 2012-04-25 06:26:06
0 2012-04-25 06:27:06
0 2012-04-25 06:28:06
0 2012-04-25 06:29:06
0 2012-04-25 06:30:06
0 2012-04-25 06:31:06
0 2012-04-25 06:32:06
0 2012-04-25 06:33:06
0 2012-04-25 06:34:06
0 2012-04-25 06:35:06
0 2012-04-25 06:36:06
0 2012-04-25 06:37:06
0 2012-04-25 06:38:06
0 2012-04-25 06:39:06
0 2012-04-25 06:40:06
0 2012-04-25 06:41:06
0 2012-04-25 06:42:06
0 2012-04-25 06:43:06
0 2012-04-25 06:44:06
0 2012-04-25 06:45:06
0 2012-04-25 06:46:06
0 2012-04-25 06:47:06
0 2012-04-25 06:48:06
0 2012-04-25 06:49:06
0 2012-04-25 06:50:06
0 2012-04-25 06:51:06
1 2012-04-25 06:52:06
0 2012-04-25 06:53:06
0 2012-04-25 06:54:06
0 2012-04-25 06:55:06
0 2012-04-25 06:56:06
0 2012-04-25 06:57:06
0 2012-04-25 06:58:06
1 2012-04-25 06:59:06
0 2012-04-25 07:00:06
0 2012-04-25 07:01:06
0 2012-04-25 07:02:06
0 2012-04-25 07:03:06
0 2012-04-25 07:04:06
0 2012-04-25 07:05:06
0 2012-04-25 07:06:06
0 2012-04-25 07:07:06
0 2012-04-25 07:08:06
0 2012-04-25 07:09:06
0 2012-04-25 07:10:06
0 2012-04-25 07:11:06
0 2012-04-25 07:12:06
0 2012-04-25 07:13:06
0 2012-04-25 07:14:06
0 2012-04-25 07:15:06
0 2012-04-25 07:16:06
0 2012-04-25 07:17:06
0 2012-04-25 07:18:06
0 2012-04-25 07:19:06
0 2012-04-25 07:20:06
0 2012-04-25 07:21:06
0 2012-04-25 07:22:06
0 2012-04-25 07:23:06
0 2012-04-25 07:24:06
2 2012-04-25 07:25:06
0 2012-04-25 07:26:06
0 2012-04-25 07:27:06
0 2012-04-25 07:28:06
0 2012-04-25 07:29:06
0 2012-04-25 07:30:06
0 2012-04-25 07:31:06
0 2012-04-25 07:32:06
0 2012-04-25 07:33:06
0 2012-04-25 07:34:06
0 2012-04-25 07:35:06
0 2012-04-25 07:36:06
0 2012-04-25 07:37:06
0 2012-04-25 07:38:06
0 2012-04-25 07:39:06
0 2012-04-25 07:40:06
0 2012-04-25 07:41:06
0 2012-04-25 07:42:06
0 2012-04-25 07:43:06
0 2012-04-25 07:44:06
0 2012-04-25 07:45:06
0 2012-04-25 07:46:06
0 2012-04-25 07:47:06
0 2012-04-25 07:48:06
0 2012-04-25 07:49:06
0 2012-04-25 07:50:06
0 2012-04-25 07:51:06
0 2012-04-25 07:52:06
0 2012-04-25 07:53:06
0 2012-04-25 07:54:06
0 2012-04-25 07:55:06
0 2012-04-25 07:56:06
0 2012-04-25 07:57:06
0 2012-04-25 07:58:06
0 2012-04-25 07:59:06
0 2012-04-25 08:00:06
0 2012-04-25 08:01:06
0 2012-04-25 08:02:06
0 2012-04-25 08:03:06
0 2012-04-25 08:04:06
0 2012-04-25 08:05:06
0 2012-04-25 08:06:06
0 2012-04-25 08:07:06
0 2012-04-25 08:08:06
0 2012-04-25 08:09:06
0 2012-04-25 08:10:06
0 2012-04-25 08:11:06
0 2012-04-25 08:12:06
1 2012-04-25 08:13:06
0 2012-04-25 08:14:06
0 2012-04-25 08:15:06
0 2012-04-25 08:16:06
0 2012-04-25 08:17:06
0 2012-04-25 08:18:06
0 2012-04-25 08:19:06
0 2012-04-25 08:20:06
0 2012-04-25 08:21:06
0 2012-04-25 08:22:06
0 2012-04-25 08:23:06
1 2012-04-25 08:24:06
0 2012-04-25 08:25:06
0 2012-04-25 08:26:06
0 2012-04-25 08:27:06
0 2012-04-25 08:28:06
0 2012-04-25 08:29:06
0 2012-04-25 08:30:06
0 2012-04-25 08:31:06
0 2012-04-25 08:32:06
0 2012-04-25 08:33:07
0 2012-04-25 08:34:07
0 2012-04-25 08:35:07
0 2012-04-25 08:36:07
0 2012-04-25 08:37:07
0 2012-04-25 08:38:07
0 2012-04-25 08:39:07
0 2012-04-25 08:40:07
0 2012-04-25 08:41:07
0 2012-04-25 08:42:07
0 2012-04-25 08:43:07
0 2012-04-25 08:44:07
0 2012-04-25 08:45:07
0 2012-04-25 08:46:07
0 2012-04-25 08:47:07
0 2012-04-25 08:48:07
1 2012-04-25 08:49:07
0 2012-04-25 08:50:07
0 2012-04-25 08:51:07
0 2012-04-25 08:52:07
0 2012-04-25 08:53:07
0 2012-04-25 08:54:07
0 2012-04-25 08:55:07
0 2012-04-25 08:56:07
0 2012-04-25 08:57:07
0 2012-04-25 08:58:07
0 2012-04-25 08:59:07
0 2012-04-25 09:00:07
0 2012-04-25 09:01:07
0 2012-04-25 09:02:07
0 2012-04-25 09:03:07
0 2012-04-25 09:04:07
0 2012-04-25 09:05:07
0 2012-04-25 09:06:07
0 2012-04-25 09:07:07
0 2012-04-25 09:08:07
0 2012-04-25 09:09:07
0 2012-04-25 09:10:07
0 2012-04-25 09:11:07
0 2012-04-25 09:12:07
0 2012-04-25 09:13:07
0 2012-04-25 09:14:07
0 2012-04-25 09:15:07
0 2012-04-25 09:16:07
0 2012-04-25 09:17:07
0 2012-04-25 09:18:07
0 2012-04-25 09:19:07
0 2012-04-25 09:20:07
0 2012-04-25 09:21:07
0 2012-04-25 09:22:07
0 2012-04-25 09:23:07
0 2012-04-25 09:24:07
0 2012-04-25 09:25:07
0 2012-04-25 09:26:07
0 2012-04-25 09:27:07
0 2012-04-25 09:28:07
0 2012-04-25 09:29:07
0 2012-04-25 09:30:07
0 2012-04-25 09:31:07
0 2012-04-25 09:32:07
0 2012-04-25 09:33:07
0 2012-04-25 09:34:07
0 2012-04-25 09:35:07
0 2012-04-25 09:36:07
0 2012-04-25 09:37:07
0 2012-04-25 09:38:07
0 2012-04-25 09:39:07
0 2012-04-25 09:40:07
0 2012-04-25 09:41:07
0 2012-04-25 09:42:07
0 2012-04-25 09:43:07
0 2012-04-25 09:44:07
0 2012-04-25 09:45:07
0 2012-04-25 09:46:07
0 2012-04-25 09:47:07
0 2012-04-25 09:48:07
0 2012-04-25 09:49:07
0 2012-04-25 09:50:07
0 2012-04-25 09:51:07
0 2012-04-25 09:52:07
0 2012-04-25 09:53:07
0 2012-04-25 09:54:07
0 2012-04-25 09:55:07
0 2012-04-25 09:56:07
0 2012-04-25 09:57:07
0 2012-04-25 09:58:07
0 2012-04-25 09:59:07
0 2012-04-25 10:00:07
0 2012-04-25 10:01:07
0 2012-04-25 10:02:07
0 2012-04-25 10:03:07
0 2012-04-25 10:04:07
0 2012-04-25 10:05:07
0 2012-04-25 10:06:07
0 2012-04-25 10:07:07
0 2012-04-25 10:08:07
0 2012-04-25 10:09:07
0 2012-04-25 10:10:07
0 2012-04-25 10:11:07
0 2012-04-25 10:12:07
0 2012-04-25 10:13:07
0 2012-04-25 10:14:07
0 2012-04-25 10:15:07
0 2012-04-25 10:16:07
0 2012-04-25 10:17:07
0 2012-04-25 10:18:07
0 2012-04-25 10:19:07
0 2012-04-25 10:20:07
0 2012-04-25 10:21:07
0 2012-04-25 10:22:07
0 2012-04-25 10:23:07
0 2012-04-25 10:24:07
0 2012-04-25 10:25:07
0 2012-04-25 10:26:07
0 2012-04-25 10:27:07
0 2012-04-25 10:28:07
0 2012-04-25 10:29:07
0 2012-04-25 10:30:07
0 2012-04-25 10:31:07
0 2012-04-25 10:32:07
0 2012-04-25 10:33:07
0 2012-04-25 10:34:07
0 2012-04-25 10:35:07
0 2012-04-25 10:36:07
0 2012-04-25 10:37:07
0 2012-04-25 10:38:07
0 2012-04-25 10:39:07
0 2012-04-25 10:40:07
0 2012-04-25 10:41:07
0 2012-04-25 10:42:07
0 2012-04-25 10:43:07
0 2012-04-25 10:44:07
0 2012-04-25 10:45:07
0 2012-04-25 10:46:07
0 2012-04-25 10:47:07
0 2012-04-25 10:48:07
0 2012-04-25 10:49:07
0 2012-04-25 10:50:07
0 2012-04-25 10:51:07
0 2012-04-25 10:52:07
0 2012-04-25 10:53:07
0 2012-04-25 10:54:07
0 2012-04-25 10:55:07
0 2012-04-25 10:56:07
0 2012-04-25 10:57:07
0 2012-04-25 10:58:07
0 2012-04-25 10:59:07
0 2012-04-25 11:00:07
0 2012-04-25 11:01:07
0 2012-04-25 11:02:07
0 2012-04-25 11:03:07
0 2012-04-25 11:04:07
0 2012-04-25 11:05:07
0 2012-04-25 11:06:07
2 2012-04-25 11:07:07
0 2012-04-25 11:08:07
0 2012-04-25 11:09:07
0 2012-04-25 11:10:07
0 2012-04-25 11:11:07
0 2012-04-25 11:12:07
0 2012-04-25 11:13:07
0 2012-04-25 11:14:07
0 2012-04-25 11:15:07
0 2012-04-25 11:16:07
0 2012-04-25 11:17:07
0 2012-04-25 11:18:07
0 2012-04-25 11:19:07
0 2012-04-25 11:20:07
0 2012-04-25 11:21:07
3 2012-04-25 11:22:07
0 2012-04-25 11:23:07
0 2012-04-25 11:24:07
0 2012-04-25 11:25:07
0 2012-04-25 11:26:07
0 2012-04-25 11:27:07
0 2012-04-25 11:28:07
0 2012-04-25 11:29:07
0 2012-04-25 11:30:07
0 2012-04-25 11:31:07
0 2012-04-25 11:32:07
0 2012-04-25 11:33:07
0 2012-04-25 11:34:07
0 2012-04-25 11:35:07
0 2012-04-25 11:36:07
0 2012-04-25 11:37:07
0 2012-04-25 11:38:07
0 2012-04-25 11:39:07
0 2012-04-25 11:40:07
0 2012-04-25 11:41:07
0 2012-04-25 11:42:07
0 2012-04-25 11:43:07
0 2012-04-25 11:44:07
0 2012-04-25 11:45:07
0 2012-04-25 11:46:07
0 2012-04-25 11:47:07
0 2012-04-25 11:48:07
0 2012-04-25 11:49:07
0 2012-04-25 11:50:07
0 2012-04-25 11:51:07
0 2012-04-25 11:52:07
0 2012-04-25 11:53:07
0 2012-04-25 11:54:07
0 2012-04-25 11:55:07
0 2012-04-25 11:56:07
0 2012-04-25 11:57:07
0 2012-04-25 11:58:07
0 2012-04-25 11:59:07
0 2012-04-25 12:00:07
0 2012-04-25 12:01:07
0 2012-04-25 12:02:07
0 2012-04-25 12:03:07
0 2012-04-25 12:04:07
0 2012-04-25 12:05:07
0 2012-04-25 12:06:07
0 2012-04-25 12:07:07
0 2012-04-25 12:08:07
0 2012-04-25 12:09:07
0 2012-04-25 12:10:07
0 2012-04-25 12:11:07
0 2012-04-25 12:12:07
0 2012-04-25 12:13:07
0 2012-04-25 12:14:07
0 2012-04-25 12:15:07
0 2012-04-25 12:16:07
0 2012-04-25 12:17:07
0 2012-04-25 12:18:07
0 2012-04-25 12:19:07
0 2012-04-25 12:20:07
0 2012-04-25 12:21:07
0 2012-04-25 12:22:07
0 2012-04-25 12:23:07
0 2012-04-25 12:24:07
0 2012-04-25 12:25:07
0 2012-04-25 12:26:07
0 2012-04-25 12:27:07
0 2012-04-25 12:28:07
0 2012-04-25 12:29:07
0 2012-04-25 12:30:07
0 2012-04-25 12:31:07
0 2012-04-25 12:32:07
0 2012-04-25 12:33:07
0 2012-04-25 12:34:07
0 2012-04-25 12:35:07
0 2012-04-25 12:36:07
0 2012-04-25 12:37:07
0 2012-04-25 12:38:07
0 2012-04-25 12:39:07
0 2012-04-25 12:40:07
0 2012-04-25 12:41:07
0 2012-04-25 12:42:07
0 2012-04-25 12:43:07
0 2012-04-25 12:44:07
0 2012-04-25 12:45:07
0 2012-04-25 12:46:07
0 2012-04-25 12:47:07
0 2012-04-25 12:48:07
0 2012-04-25 12:49:07
0 2012-04-25 12:50:07
0 2012-04-25 12:51:07
0 2012-04-25 12:52:07
0 2012-04-25 12:53:07
0 2012-04-25 12:54:07
0 2012-04-25 12:55:07
0 2012-04-25 12:56:07
0 2012-04-25 12:57:07
0 2012-04-25 12:58:07
0 2012-04-25 12:59:07
0 2012-04-25 13:00:07
0 2012-04-25 13:01:07
0 2012-04-25 13:02:07
0 2012-04-25 13:03:07
0 2012-04-25 13:04:07
0 2012-04-25 13:05:07
0 2012-04-25 13:06:07
0 2012-04-25 13:07:07
0 2012-04-25 13:08:07
0 2012-04-25 13:09:07
0 2012-04-25 13:10:07
0 2012-04-25 13:11:07
0 2012-04-25 13:12:07
0 2012-04-25 13:13:07
0 2012-04-25 13:14:07
0 2012-04-25 13:15:07
0 2012-04-25 13:16:07
0 2012-04-25 13:17:07
0 2012-04-25 13:18:07
0 2012-04-25 13:19:07
0 2012-04-25 13:20:07
0 2012-04-25 13:21:07
0 2012-04-25 13:22:07
0 2012-04-25 13:23:07
0 2012-04-25 13:24:07
0 2012-04-25 13:25:07
0 2012-04-25 13:26:07
0 2012-04-25 13:27:07
0 2012-04-25 13:28:07
0 2012-04-25 13:29:07
0 2012-04-25 13:30:07
0 2012-04-25 13:31:07
0 2012-04-25 13:32:07
0 2012-04-25 13:33:07
0 2012-04-25 13:34:07
0 2012-04-25 13:35:07
0 2012-04-25 13:36:07
0 2012-04-25 13:37:07
0 2012-04-25 13:38:07
0 2012-04-25 13:39:07
0 2012-04-25 13:40:07
0 2012-04-25 13:41:07
0 2012-04-25 13:42:07
0 2012-04-25 13:43:07
0 2012-04-25 13:44:07
0 2012-04-25 13:45:07
0 2012-04-25 13:46:07
0 2012-04-25 13:47:07
0 2012-04-25 13:48:07
0 2012-04-25 13:49:07
0 2012-04-25 13:50:07
0 2012-04-25 13:51:07
0 2012-04-25 13:52:07
0 2012-04-25 13:53:07
0 2012-04-25 13:54:07
0 2012-04-25 13:55:07
0 2012-04-25 13:56:07
0 2012-04-25 13:57:07
0 2012-04-25 13:58:07
0 2012-04-25 13:59:07
0 2012-04-25 14:00:07
0 2012-04-25 14:01:07
0 2012-04-25 14:02:07
0 2012-04-25 14:03:07
0 2012-04-25 14:04:07
0 2012-04-25 14:05:07
0 2012-04-25 14:06:07
0 2012-04-25 14:07:07
0 2012-04-25 14:08:07
0 2012-04-25 14:09:07
0 2012-04-25 14:10:07
0 2012-04-25 14:11:07
0 2012-04-25 14:12:07
0 2012-04-25 14:13:07
0 2012-04-25 14:14:07
0 2012-04-25 14:15:07
0 2012-04-25 14:16:08
0 2012-04-25 14:17:09
0 2012-04-25 14:18:07
0 2012-04-25 14:19:07
0 2012-04-25 14:20:07
0 2012-04-25 14:21:07
0 2012-04-25 14:22:07
0 2012-04-25 14:23:07
0 2012-04-25 14:24:07
0 2012-04-25 14:25:07
0 2012-04-25 14:26:07
0 2012-04-25 14:27:07
0 2012-04-25 14:28:07
0 2012-04-25 14:29:07
0 2012-04-25 14:30:07
0 2012-04-25 14:31:07
0 2012-04-25 14:32:07
0 2012-04-25 14:33:07
0 2012-04-25 14:34:07
0 2012-04-25 14:35:07
0 2012-04-25 14:36:07
0 2012-04-25 14:37:07
1 2012-04-25 14:38:07
0 2012-04-25 14:39:07
0 2012-04-25 14:40:07
0 2012-04-25 14:41:07
0 2012-04-25 14:42:07
0 2012-04-25 14:43:07
0 2012-04-25 14:44:07
0 2012-04-25 14:45:07
0 2012-04-25 14:46:07
0 2012-04-25 14:47:07
0 2012-04-25 14:48:07
0 2012-04-25 14:49:07
0 2012-04-25 14:50:07
0 2012-04-25 14:51:07
0 2012-04-25 14:52:07
0 2012-04-25 14:53:07
0 2012-04-25 14:54:07
0 2012-04-25 14:55:07
0 2012-04-25 14:56:07
0 2012-04-25 14:57:07
0 2012-04-25 14:58:07
0 2012-04-25 14:59:07
1 2012-04-25 15:00:07
0 2012-04-25 15:01:07
0 2012-04-25 15:02:07
1 2012-04-25 15:03:07
0 2012-04-25 15:04:07
0 2012-04-25 15:05:07
0 2012-04-25 15:06:07
0 2012-04-25 15:07:07
0 2012-04-25 15:08:07
0 2012-04-25 15:09:07
0 2012-04-25 15:10:07
0 2012-04-25 15:11:07
0 2012-04-25 15:12:07
0 2012-04-25 15:13:07
0 2012-04-25 15:14:07
0 2012-04-25 15:15:07
0 2012-04-25 15:16:07
0 2012-04-25 15:17:07
0 2012-04-25 15:18:07
0 2012-04-25 15:19:07
0 2012-04-25 15:20:07
0 2012-04-25 15:21:07
0 2012-04-25 15:22:07
0 2012-04-25 15:23:07
0 2012-04-25 15:24:07
0 2012-04-25 15:25:07
0 2012-04-25 15:26:07
0 2012-04-25 15:27:07
0 2012-04-25 15:28:07
0 2012-04-25 15:29:07
0 2012-04-25 15:30:07
0 2012-04-25 15:31:07
0 2012-04-25 15:32:07
0 2012-04-25 15:33:07
0 2012-04-25 15:34:07
0 2012-04-25 15:35:07
0 2012-04-25 15:36:07
0 2012-04-25 15:37:07
0 2012-04-25 15:38:07
0 2012-04-25 15:39:07
0 2012-04-25 15:40:07
0 2012-04-25 15:41:07
0 2012-04-25 15:42:07
0 2012-04-25 15:43:07
0 2012-04-25 15:44:07
0 2012-04-25 15:45:07
0 2012-04-25 15:46:07
0 2012-04-25 15:47:07
0 2012-04-25 15:48:07
0 2012-04-25 15:49:07
0 2012-04-25 15:50:07
0 2012-04-25 15:51:07
0 2012-04-25 15:52:07
0 2012-04-25 15:53:07
0 2012-04-25 15:54:07
0 2012-04-25 15:55:07
0 2012-04-25 15:56:07
0 2012-04-25 15:57:07
0 2012-04-25 15:58:07
0 2012-04-25 15:59:07
0 2012-04-25 16:00:07
0 2012-04-25 16:01:07
0 2012-04-25 16:02:07
0 2012-04-25 16:03:07
0 2012-04-25 16:04:07
0 2012-04-25 16:05:07
0 2012-04-25 16:06:07
0 2012-04-25 16:07:07
0 2012-04-25 16:08:07
0 2012-04-25 16:09:07
1 2012-04-25 16:10:07
0 2012-04-25 16:11:07
0 2012-04-25 16:12:07
0 2012-04-25 16:13:07
0 2012-04-25 16:14:07
0 2012-04-25 16:15:07
0 2012-04-25 16:16:07
1 2012-04-25 16:17:07
0 2012-04-25 16:18:07
0 2012-04-25 16:19:07
0 2012-04-25 16:20:07
0 2012-04-25 16:21:07
0 2012-04-25 16:22:07
0 2012-04-25 16:23:07
0 2012-04-25 16:24:07
0 2012-04-25 16:25:07
0 2012-04-25 16:26:07
0 2012-04-25 16:27:07
0 2012-04-25 16:28:07
0 2012-04-25 16:29:07
0 2012-04-25 16:30:07
0 2012-04-25 16:31:07
0 2012-04-25 16:32:07
0 2012-04-25 16:33:07
0 2012-04-25 16:34:07
0 2012-04-25 16:35:07
0 2012-04-25 16:36:07
0 2012-04-25 16:37:07
0 2012-04-25 16:38:07
0 2012-04-25 16:39:07
0 2012-04-25 16:40:07
0 2012-04-25 16:41:07
0 2012-04-25 16:42:07
0 2012-04-25 16:43:07
0 2012-04-25 16:44:07
0 2012-04-25 16:45:07
0 2012-04-25 16:46:07
0 2012-04-25 16:47:07
0 2012-04-25 16:48:07
1 2012-04-25 16:49:07
0 2012-04-25 16:50:07
0 2012-04-25 16:51:07
0 2012-04-25 16:52:07
0 2012-04-25 16:53:07
0 2012-04-25 16:54:07
0 2012-04-25 16:55:07
0 2012-04-25 16:56:07
0 2012-04-25 16:57:07
0 2012-04-25 16:58:07
0 2012-04-25 16:59:07
0 2012-04-25 17:00:07
0 2012-04-25 17:01:07
0 2012-04-25 17:02:07
0 2012-04-25 17:03:07
0 2012-04-25 17:04:07
0 2012-04-25 17:05:07
0 2012-04-25 17:06:07
0 2012-04-25 17:07:07
0 2012-04-25 17:08:07
0 2012-04-25 17:09:07
0 2012-04-25 17:10:07
0 2012-04-25 17:11:07
0 2012-04-25 17:12:07
0 2012-04-25 17:13:07
0 2012-04-25 17:14:07
0 2012-04-25 17:15:07
0 2012-04-25 17:16:07
0 2012-04-25 17:17:07
0 2012-04-25 17:18:07
2 2012-04-25 17:19:07
0 2012-04-25 17:20:07
0 2012-04-25 17:21:07
0 2012-04-25 17:22:07
0 2012-04-25 17:23:07
0 2012-04-25 17:24:07
0 2012-04-25 17:25:07
0 2012-04-25 17:26:07
0 2012-04-25 17:27:07
0 2012-04-25 17:28:07
0 2012-04-25 17:29:07
0 2012-04-25 17:30:07
0 2012-04-25 17:31:07
0 2012-04-25 17:32:07
0 2012-04-25 17:33:07
0 2012-04-25 17:34:07
1 2012-04-25 17:35:07
0 2012-04-25 17:36:07
0 2012-04-25 17:37:07
0 2012-04-25 17:38:07
0 2012-04-25 17:39:07
0 2012-04-25 17:40:07
0 2012-04-25 17:41:07
0 2012-04-25 17:42:07
0 2012-04-25 17:43:07
0 2012-04-25 17:44:07
0 2012-04-25 17:45:07
1 2012-04-25 17:46:07
0 2012-04-25 17:47:07
0 2012-04-25 17:48:07
0 2012-04-25 17:49:07
0 2012-04-25 17:50:07
0 2012-04-25 17:51:07
0 2012-04-25 17:52:07
0 2012-04-25 17:53:07
1 2012-04-25 17:54:07
0 2012-04-25 17:55:07
0 2012-04-25 17:56:07
0 2012-04-25 17:57:07
0 2012-04-25 17:58:07
0 2012-04-25 17:59:07
0 2012-04-25 18:00:07
0 2012-04-25 18:01:07
0 2012-04-25 18:02:07
0 2012-04-25 18:03:07
0 2012-04-25 18:04:07
0 2012-04-25 18:05:07
0 2012-04-25 18:06:07
0 2012-04-25 18:07:07
0 2012-04-25 18:08:07
0 2012-04-25 18:09:07
0 2012-04-25 18:10:07
0 2012-04-25 18:11:07
0 2012-04-25 18:12:07
0 2012-04-25 18:13:07
0 2012-04-25 18:14:07
0 2012-04-25 18:15:07
0 2012-04-25 18:16:07
0 2012-04-25 18:17:07
0 2012-04-25 18:18:07
0 2012-04-25 18:19:07
0 2012-04-25 18:20:07
0 2012-04-25 18:21:07
0 2012-04-25 18:22:07
0 2012-04-25 18:23:07
0 2012-04-25 18:24:07
0 2012-04-25 18:25:07
1 2012-04-25 18:26:07
0 2012-04-25 18:27:07
0 2012-04-25 18:28:07
0 2012-04-25 18:29:07
0 2012-04-25 18:30:07
0 2012-04-25 18:31:07
0 2012-04-25 18:32:07
0 2012-04-25 18:33:07
0 2012-04-25 18:34:07
0 2012-04-25 18:35:07
0 2012-04-25 18:36:07
0 2012-04-25 18:37:07
0 2012-04-25 18:38:07
0 2012-04-25 18:39:07
0 2012-04-25 18:40:07
0 2012-04-25 18:41:07
0 2012-04-25 18:42:07
0 2012-04-25 18:43:07
0 2012-04-25 18:44:07
0 2012-04-25 18:45:07
0 2012-04-25 18:46:07
0 2012-04-25 18:47:07
0 2012-04-25 18:48:07
0 2012-04-25 18:49:07
0 2012-04-25 18:50:07
0 2012-04-25 18:51:07
0 2012-04-25 18:52:07
0 2012-04-25 18:53:07
0 2012-04-25 18:54:07
0 2012-04-25 18:55:07
0 2012-04-25 18:56:07
0 2012-04-25 18:57:07
0 2012-04-25 18:58:07
0 2012-04-25 18:59:07
0 2012-04-25 19:00:07
0 2012-04-25 19:01:07
0 2012-04-25 19:02:07
0 2012-04-25 19:03:07
0 2012-04-25 19:04:07
0 2012-04-25 19:05:07
0 2012-04-25 19:06:07
0 2012-04-25 19:07:07
0 2012-04-25 19:08:07
0 2012-04-25 19:09:07
0 2012-04-25 19:10:07
0 2012-04-25 19:11:07
0 2012-04-25 19:12:07
0 2012-04-25 19:13:07
0 2012-04-25 19:14:07
0 2012-04-25 19:15:07
0 2012-04-25 19:16:07
0 2012-04-25 19:17:07
0 2012-04-25 19:18:07
0 2012-04-25 19:19:07
0 2012-04-25 19:20:07
0 2012-04-25 19:21:07
0 2012-04-25 19:22:07
0 2012-04-25 19:23:07
0 2012-04-25 19:24:07
0 2012-04-25 19:25:07
0 2012-04-25 19:26:07
0 2012-04-25 19:27:07
0 2012-04-25 19:28:07
0 2012-04-25 19:29:07
0 2012-04-25 19:30:11
0 2012-04-25 19:31:07
0 2012-04-25 19:32:07
0 2012-04-25 19:33:07
0 2012-04-25 19:34:07
0 2012-04-25 19:35:07
0 2012-04-25 19:36:07
0 2012-04-25 19:37:07
0 2012-04-25 19:38:07
0 2012-04-25 19:39:07
0 2012-04-25 19:40:07
0 2012-04-25 19:41:07
0 2012-04-25 19:42:07
0 2012-04-25 19:43:07
0 2012-04-25 19:44:07
0 2012-04-25 19:45:07
0 2012-04-25 19:46:07
0 2012-04-25 19:47:07
0 2012-04-25 19:48:07
0 2012-04-25 19:49:07
0 2012-04-25 19:50:07
0 2012-04-25 19:51:07
0 2012-04-25 19:52:07
0 2012-04-25 19:53:07
0 2012-04-25 19:54:07
0 2012-04-25 19:55:07
0 2012-04-25 19:56:07
0 2012-04-25 19:57:07
4 2012-04-25 19:58:07
0 2012-04-25 19:59:07
0 2012-04-25 20:00:07
0 2012-04-25 20:01:07
0 2012-04-25 20:02:07
0 2012-04-25 20:03:07
0 2012-04-25 20:04:07
0 2012-04-25 20:05:07
0 2012-04-25 20:06:08
0 2012-04-25 20:07:07
0 2012-04-25 20:08:07
0 2012-04-25 20:09:07
0 2012-04-25 20:10:07
0 2012-04-25 20:11:07
0 2012-04-25 20:12:07
0 2012-04-25 20:13:07
0 2012-04-25 20:14:07
0 2012-04-25 20:15:07
0 2012-04-25 20:16:07
0 2012-04-25 20:17:08
0 2012-04-25 20:18:07
0 2012-04-25 20:19:07
0 2012-04-25 20:20:07
0 2012-04-25 20:21:07
0 2012-04-25 20:22:08
0 2012-04-25 20:23:08
0 2012-04-25 20:24:08
0 2012-04-25 20:25:08
0 2012-04-25 20:26:08
0 2012-04-25 20:27:08
0 2012-04-25 20:28:08
0 2012-04-25 20:29:08
0 2012-04-25 20:30:08
0 2012-04-25 20:31:08
0 2012-04-25 20:32:08
0 2012-04-25 20:33:08
0 2012-04-25 20:34:08
0 2012-04-25 20:35:08
0 2012-04-25 20:36:08
0 2012-04-25 20:37:08
0 2012-04-25 20:38:08
0 2012-04-25 20:39:08
0 2012-04-25 20:40:08
0 2012-04-25 20:41:08
0 2012-04-25 20:42:08
0 2012-04-25 20:43:08
0 2012-04-25 20:44:08
0 2012-04-25 20:45:08
0 2012-04-25 20:46:08
0 2012-04-25 20:47:08
0 2012-04-25 20:48:08
0 2012-04-25 20:49:08
0 2012-04-25 20:50:08
0 2012-04-25 20:51:08
0 2012-04-25 20:52:08
0 2012-04-25 20:53:08
0 2012-04-25 20:54:08
0 2012-04-25 20:55:08
0 2012-04-25 20:56:08
0 2012-04-25 20:57:08
0 2012-04-25 20:58:08
0 2012-04-25 20:59:08
0 2012-04-25 21:00:08
0 2012-04-25 21:01:08
0 2012-04-25 21:02:08
0 2012-04-25 21:03:08
0 2012-04-25 21:04:08
2 2012-04-25 21:05:08
0 2012-04-25 21:06:08
0 2012-04-25 21:07:08
0 2012-04-25 21:08:08
0 2012-04-25 21:09:08
0 2012-04-25 21:10:08
0 2012-04-25 21:11:08
0 2012-04-25 21:12:08
0 2012-04-25 21:13:08
0 2012-04-25 21:14:08
0 2012-04-25 21:15:08
0 2012-04-25 21:16:08
0 2012-04-25 21:17:08
0 2012-04-25 21:18:08
0 2012-04-25 21:19:08
0 2012-04-25 21:20:08
0 2012-04-25 21:21:08
0 2012-04-25 21:22:08
0 2012-04-25 21:23:08
0 2012-04-25 21:24:08
0 2012-04-25 21:25:08
0 2012-04-25 21:26:08
0 2012-04-25 21:27:08
0 2012-04-25 21:28:08
0 2012-04-25 21:29:08
0 2012-04-25 21:30:08
0 2012-04-25 21:31:08
0 2012-04-25 21:32:08
0 2012-04-25 21:33:08
0 2012-04-25 21:34:08
0 2012-04-25 21:35:08
0 2012-04-25 21:36:08
0 2012-04-25 21:37:08
0 2012-04-25 21:38:08
0 2012-04-25 21:39:08
0 2012-04-25 21:40:08
0 2012-04-25 21:41:08
0 2012-04-25 21:42:08
0 2012-04-25 21:43:08
1 2012-04-25 21:44:08
0 2012-04-25 21:45:08
0 2012-04-25 21:46:08
0 2012-04-25 21:47:08
0 2012-04-25 21:48:08
0 2012-04-25 21:49:08
0 2012-04-25 21:50:08
0 2012-04-25 21:51:08
0 2012-04-25 21:52:08
0 2012-04-25 21:53:08
0 2012-04-25 21:54:08
0 2012-04-25 21:55:08
0 2012-04-25 21:56:08
0 2012-04-25 21:57:08
0 2012-04-25 21:58:08
0 2012-04-25 21:59:08
0 2012-04-25 22:00:08
0 2012-04-25 22:01:08
0 2012-04-25 22:02:08
0 2012-04-25 22:03:08
0 2012-04-25 22:04:08
0 2012-04-25 22:05:08
0 2012-04-25 22:06:08
0 2012-04-25 22:07:08
0 2012-04-25 22:08:08
0 2012-04-25 22:09:08
0 2012-04-25 22:10:08
0 2012-04-25 22:11:08
0 2012-04-25 22:12:08
0 2012-04-25 22:13:08
1 2012-04-25 22:14:08
0 2012-04-25 22:15:08
0 2012-04-25 22:16:08
0 2012-04-25 22:17:08
0 2012-04-25 22:18:08
0 2012-04-25 22:19:08
0 2012-04-25 22:20:08
0 2012-04-25 22:21:08
0 2012-04-25 22:22:08
0 2012-04-25 22:23:08
0 2012-04-25 22:24:08
0 2012-04-25 22:25:08
0 2012-04-25 22:26:08
0 2012-04-25 22:27:08
0 2012-04-25 22:28:08
0 2012-04-25 22:29:08
0 2012-04-25 22:30:08
0 2012-04-25 22:31:08
0 2012-04-25 22:32:08
0 2012-04-25 22:33:08
0 2012-04-25 22:34:08
0 2012-04-25 22:35:08
0 2012-04-25 22:36:08
0 2012-04-25 22:37:08
0 2012-04-25 22:38:08
0 2012-04-25 22:39:08
0 2012-04-25 22:40:08
0 2012-04-25 22:41:08
0 2012-04-25 22:42:08
0 2012-04-25 22:43:08
0 2012-04-25 22:44:08
0 2012-04-25 22:45:08
0 2012-04-25 22:46:08
0 2012-04-25 22:47:08
0 2012-04-25 22:48:08
0 2012-04-25 22:49:08
0 2012-04-25 22:50:08
1 2012-04-25 22:51:08
0 2012-04-25 22:52:08
0 2012-04-25 22:53:08
0 2012-04-25 22:54:08
0 2012-04-25 22:55:08
0 2012-04-25 22:56:08
0 2012-04-25 22:57:08
1 2012-04-25 22:58:08
0 2012-04-25 22:59:08
0 2012-04-25 23:00:08
0 2012-04-25 23:01:08
0 2012-04-25 23:02:08
0 2012-04-25 23:03:08
0 2012-04-25 23:04:08
0 2012-04-25 23:05:08
0 2012-04-25 23:06:08
0 2012-04-25 23:07:08
0 2012-04-25 23:08:08
0 2012-04-25 23:09:08
0 2012-04-25 23:10:08
0 2012-04-25 23:11:08
0 2012-04-25 23:12:08
0 2012-04-25 23:13:08
0 2012-04-25 23:14:08
0 2012-04-25 23:15:08
0 2012-04-25 23:16:08
0 2012-04-25 23:17:08
0 2012-04-25 23:18:08
0 2012-04-25 23:19:08
0 2012-04-25 23:20:08
0 2012-04-25 23:21:08
0 2012-04-25 23:22:08
0 2012-04-25 23:23:08
0 2012-04-25 23:24:08
0 2012-04-25 23:25:08
0 2012-04-25 23:26:08
0 2012-04-25 23:27:08
0 2012-04-25 23:28:08
0 2012-04-25 23:29:08
0 2012-04-25 23:30:08
0 2012-04-25 23:31:08
0 2012-04-25 23:32:08
1 2012-04-25 23:33:08
0 2012-04-25 23:34:08
0 2012-04-25 23:35:08
0 2012-04-25 23:36:08
1 2012-04-25 23:37:08
0 2012-04-25 23:38:08
0 2012-04-25 23:39:08
0 2012-04-25 23:40:08
0 2012-04-25 23:41:08
0 2012-04-25 23:42:08
0 2012-04-25 23:43:08
0 2012-04-25 23:44:08
0 2012-04-25 23:45:08
0 2012-04-25 23:46:08
0 2012-04-25 23:47:08
0 2012-04-25 23:48:08
0 2012-04-25 23:49:08
0 2012-04-25 23:50:08
0 2012-04-25 23:51:08
0 2012-04-25 23:52:08
0 2012-04-25 23:53:08
0 2012-04-25 23:54:08
1 2012-04-25 23:55:08
0 2012-04-25 23:56:08
0 2012-04-25 23:57:08
0 2012-04-25 23:58:08
0 2012-04-25 23:59:08
0 2012-04-26 00:00:08
0 2012-04-26 00:01:08
0 2012-04-26 00:02:08
0 2012-04-26 00:03:08
0 2012-04-26 00:04:08
0 2012-04-26 00:05:08
0 2012-04-26 00:06:08
0 2012-04-26 00:07:08
0 2012-04-26 00:08:08
0 2012-04-26 00:09:08
0 2012-04-26 00:10:08
0 2012-04-26 00:11:08
0 2012-04-26 00:12:08
0 2012-04-26 00:13:08
0 2012-04-26 00:14:08
0 2012-04-26 00:15:08
0 2012-04-26 00:16:08
0 2012-04-26 00:17:08
0 2012-04-26 00:18:08
0 2012-04-26 00:19:08
0 2012-04-26 00:20:08
0 2012-04-26 00:21:08
0 2012-04-26 00:22:08
0 2012-04-26 00:23:08
0 2012-04-26 00:24:08
0 2012-04-26 00:25:08
0 2012-04-26 00:26:08
0 2012-04-26 00:27:08
0 2012-04-26 00:28:08
0 2012-04-26 00:29:08
1 2012-04-26 00:30:08
0 2012-04-26 00:31:08
0 2012-04-26 00:32:08
0 2012-04-26 00:33:08
0 2012-04-26 00:34:08
0 2012-04-26 00:35:08
0 2012-04-26 00:36:08
0 2012-04-26 00:37:08
0 2012-04-26 00:38:08
0 2012-04-26 00:39:08
0 2012-04-26 00:40:08
0 2012-04-26 00:41:08
0 2012-04-26 00:42:08
0 2012-04-26 00:43:08
0 2012-04-26 00:44:08
0 2012-04-26 00:45:08
0 2012-04-26 00:46:08
0 2012-04-26 00:47:08
0 2012-04-26 00:48:08
0 2012-04-26 00:49:08
0 2012-04-26 00:50:08
0 2012-04-26 00:51:08
0 2012-04-26 00:52:08
0 2012-04-26 00:53:08
0 2012-04-26 00:54:08
0 2012-04-26 00:55:08
0 2012-04-26 00:56:08
0 2012-04-26 00:57:08
0 2012-04-26 00:58:08
0 2012-04-26 00:59:08
0 2012-04-26 01:00:08
0 2012-04-26 01:01:08
0 2012-04-26 01:02:08
0 2012-04-26 01:03:08
0 2012-04-26 01:04:08
0 2012-04-26 01:05:08
0 2012-04-26 01:06:08
0 2012-04-26 01:07:08
0 2012-04-26 01:08:08
0 2012-04-26 01:09:08
0 2012-04-26 01:10:08
0 2012-04-26 01:11:08
0 2012-04-26 01:12:08
0 2012-04-26 01:13:08
0 2012-04-26 01:14:08
0 2012-04-26 01:15:08
0 2012-04-26 01:16:08
0 2012-04-26 01:17:08
0 2012-04-26 01:18:08
0 2012-04-26 01:19:08
0 2012-04-26 01:20:08
0 2012-04-26 01:21:08
1 2012-04-26 01:22:08
0 2012-04-26 01:23:08
0 2012-04-26 01:24:08
0 2012-04-26 01:25:08
0 2012-04-26 01:26:08
0 2012-04-26 01:27:08
0 2012-04-26 01:28:08
0 2012-04-26 01:29:08
0 2012-04-26 01:30:08
0 2012-04-26 01:31:08
0 2012-04-26 01:32:08
0 2012-04-26 01:33:08
0 2012-04-26 01:34:08
0 2012-04-26 01:35:08
0 2012-04-26 01:36:08
0 2012-04-26 01:37:08
0 2012-04-26 01:38:08
0 2012-04-26 01:39:08
0 2012-04-26 01:40:08
0 2012-04-26 01:41:08
0 2012-04-26 01:42:08
0 2012-04-26 01:43:08
0 2012-04-26 01:44:08
0 2012-04-26 01:45:08
0 2012-04-26 01:46:08
0 2012-04-26 01:47:08
0 2012-04-26 01:48:08
0 2012-04-26 01:49:08
0 2012-04-26 01:50:08
0 2012-04-26 01:51:08
0 2012-04-26 01:52:08
0 2012-04-26 01:53:08
0 2012-04-26 01:54:08
0 2012-04-26 01:55:08
0 2012-04-26 01:56:08
0 2012-04-26 01:57:08
0 2012-04-26 01:58:08
0 2012-04-26 01:59:08
0 2012-04-26 02:00:08
0 2012-04-26 02:01:08
0 2012-04-26 02:02:08
0 2012-04-26 02:03:08
0 2012-04-26 02:04:08
0 2012-04-26 02:05:08
0 2012-04-26 02:06:08
0 2012-04-26 02:07:08
0 2012-04-26 02:08:08
0 2012-04-26 02:09:08
0 2012-04-26 02:10:08
0 2012-04-26 02:11:08
0 2012-04-26 02:12:08
0 2012-04-26 02:13:08
0 2012-04-26 02:14:08
0 2012-04-26 02:15:08
0 2012-04-26 02:16:08
0 2012-04-26 02:17:08
0 2012-04-26 02:18:08
0 2012-04-26 02:19:08
0 2012-04-26 02:20:08
0 2012-04-26 02:21:08
0 2012-04-26 02:22:08
0 2012-04-26 02:23:08
0 2012-04-26 02:24:08
0 2012-04-26 02:25:08
0 2012-04-26 02:26:08
0 2012-04-26 02:27:08
0 2012-04-26 02:28:08
0 2012-04-26 02:29:08
0 2012-04-26 02:30:08
0 2012-04-26 02:31:08
0 2012-04-26 02:32:08
0 2012-04-26 02:33:08
0 2012-04-26 02:34:08
0 2012-04-26 02:35:08
0 2012-04-26 02:36:08
0 2012-04-26 02:37:08
0 2012-04-26 02:38:08
0 2012-04-26 02:39:08
0 2012-04-26 02:40:08
0 2012-04-26 02:41:08
0 2012-04-26 02:42:08
0 2012-04-26 02:43:08
0 2012-04-26 02:44:08
0 2012-04-26 02:45:08
0 2012-04-26 02:46:08
0 2012-04-26 02:47:08
0 2012-04-26 02:48:08
0 2012-04-26 02:49:08
0 2012-04-26 02:50:08
0 2012-04-26 02:51:08
0 2012-04-26 02:52:08
0 2012-04-26 02:53:08
0 2012-04-26 02:54:08
0 2012-04-26 02:55:08
0 2012-04-26 02:56:08
0 2012-04-26 02:57:08
0 2012-04-26 02:58:08
0 2012-04-26 02:59:08
0 2012-04-26 03:00:08
0 2012-04-26 03:01:08
0 2012-04-26 03:02:08
0 2012-04-26 03:03:08
0 2012-04-26 03:04:08
0 2012-04-26 03:05:08
0 2012-04-26 03:06:08
0 2012-04-26 03:07:08
0 2012-04-26 03:08:08
0 2012-04-26 03:09:08
0 2012-04-26 03:10:08
0 2012-04-26 03:11:08
0 2012-04-26 03:12:08
0 2012-04-26 03:13:08
0 2012-04-26 03:14:08
0 2012-04-26 03:15:08
0 2012-04-26 03:16:08
0 2012-04-26 03:17:08
0 2012-04-26 03:18:08
0 2012-04-26 03:19:08
0 2012-04-26 03:20:08
0 2012-04-26 03:21:08
0 2012-04-26 03:22:08
0 2012-04-26 03:23:08
0 2012-04-26 03:24:08
0 2012-04-26 03:25:08
0 2012-04-26 03:26:08
0 2012-04-26 03:27:08
0 2012-04-26 03:28:08
0 2012-04-26 03:29:08
0 2012-04-26 03:30:08
0 2012-04-26 03:31:08
0 2012-04-26 03:32:08
0 2012-04-26 03:33:08
0 2012-04-26 03:34:08
0 2012-04-26 03:35:08
0 2012-04-26 03:36:08
0 2012-04-26 03:37:08
0 2012-04-26 03:38:08
0 2012-04-26 03:39:08
0 2012-04-26 03:40:08
0 2012-04-26 03:41:08
0 2012-04-26 03:42:08
0 2012-04-26 03:43:08
0 2012-04-26 03:44:08
0 2012-04-26 03:45:08
0 2012-04-26 03:46:08
0 2012-04-26 03:47:08
0 2012-04-26 03:48:08
0 2012-04-26 03:49:08
0 2012-04-26 03:50:08
0 2012-04-26 03:51:08
0 2012-04-26 03:52:08
0 2012-04-26 03:53:08
0 2012-04-26 03:54:08
0 2012-04-26 03:55:08
0 2012-04-26 03:56:08
0 2012-04-26 03:57:08
1 2012-04-26 03:58:08
0 2012-04-26 03:59:08
0 2012-04-26 04:00:08
0 2012-04-26 04:01:08
0 2012-04-26 04:02:08
0 2012-04-26 04:03:08
0 2012-04-26 04:04:08
0 2012-04-26 04:05:08
0 2012-04-26 04:06:08
0 2012-04-26 04:07:08
0 2012-04-26 04:08:08
0 2012-04-26 04:09:08
0 2012-04-26 04:10:08
0 2012-04-26 04:11:08
1 2012-04-26 04:12:08
0 2012-04-26 04:13:08
0 2012-04-26 04:14:08
0 2012-04-26 04:15:08
0 2012-04-26 04:16:08
0 2012-04-26 04:17:08
0 2012-04-26 04:18:08
0 2012-04-26 04:19:08
0 2012-04-26 04:20:08
0 2012-04-26 04:21:08
0 2012-04-26 04:22:08
0 2012-04-26 04:23:08
0 2012-04-26 04:24:08
1 2012-04-26 04:25:08
0 2012-04-26 04:26:08
0 2012-04-26 04:27:08
0 2012-04-26 04:28:08
0 2012-04-26 04:29:08
0 2012-04-26 04:30:08
0 2012-04-26 04:31:08
0 2012-04-26 04:32:08
0 2012-04-26 04:33:08
0 2012-04-26 04:34:08
0 2012-04-26 04:35:08
0 2012-04-26 04:36:08
0 2012-04-26 04:37:08
0 2012-04-26 04:38:08
0 2012-04-26 04:39:08
0 2012-04-26 04:40:08
0 2012-04-26 04:41:08
0 2012-04-26 04:42:08
0 2012-04-26 04:43:08
0 2012-04-26 04:44:08
0 2012-04-26 04:45:08
0 2012-04-26 04:46:08
0 2012-04-26 04:47:08
0 2012-04-26 04:48:08
0 2012-04-26 04:49:08
0 2012-04-26 04:50:08
0 2012-04-26 04:51:08
0 2012-04-26 04:52:08
0 2012-04-26 04:53:08
0 2012-04-26 04:54:08
0 2012-04-26 04:55:08
0 2012-04-26 04:56:08
0 2012-04-26 04:57:08
0 2012-04-26 04:58:08
0 2012-04-26 04:59:08
0 2012-04-26 05:00:08
0 2012-04-26 05:01:08
0 2012-04-26 05:02:08
0 2012-04-26 05:03:08
0 2012-04-26 05:04:08
0 2012-04-26 05:05:08
0 2012-04-26 05:06:08
0 2012-04-26 05:07:08
0 2012-04-26 05:08:08
0 2012-04-26 05:09:08
0 2012-04-26 05:10:08
0 2012-04-26 05:11:08
0 2012-04-26 05:12:08
0 2012-04-26 05:13:08
0 2012-04-26 05:14:08
0 2012-04-26 05:15:08
0 2012-04-26 05:16:08
0 2012-04-26 05:17:08
0 2012-04-26 05:18:08
0 2012-04-26 05:19:08
0 2012-04-26 05:20:08
0 2012-04-26 05:21:08
0 2012-04-26 05:22:08
0 2012-04-26 05:23:08
0 2012-04-26 05:24:08
0 2012-04-26 05:25:08
3 2012-04-26 05:26:08
0 2012-04-26 05:27:08
0 2012-04-26 05:28:08
0 2012-04-26 05:29:08
0 2012-04-26 05:30:08
0 2012-04-26 05:31:08
0 2012-04-26 05:32:08
0 2012-04-26 05:33:08
0 2012-04-26 05:34:08
1 2012-04-26 05:35:08
0 2012-04-26 05:36:08
0 2012-04-26 05:37:08
0 2012-04-26 05:38:08
0 2012-04-26 05:39:08
0 2012-04-26 05:40:08
0 2012-04-26 05:41:08
0 2012-04-26 05:42:08
0 2012-04-26 05:43:08
0 2012-04-26 05:44:08
0 2012-04-26 05:45:08
0 2012-04-26 05:46:08
0 2012-04-26 05:47:08
0 2012-04-26 05:48:08
0 2012-04-26 05:49:08
0 2012-04-26 05:50:08
0 2012-04-26 05:51:08
0 2012-04-26 05:52:08
0 2012-04-26 05:53:08
0 2012-04-26 05:54:08
0 2012-04-26 05:55:08
0 2012-04-26 05:56:08
1 2012-04-26 05:57:09
0 2012-04-26 05:58:09
0 2012-04-26 05:59:12
0 2012-04-26 06:00:08
0 2012-04-26 06:01:08
0 2012-04-26 06:02:08
0 2012-04-26 06:03:08
0 2012-04-26 06:04:08
0 2012-04-26 06:05:08
0 2012-04-26 06:06:08
0 2012-04-26 06:07:08
0 2012-04-26 06:08:08
0 2012-04-26 06:09:09
0 2012-04-26 06:10:09
0 2012-04-26 06:11:08
0 2012-04-26 06:12:08
0 2012-04-26 06:13:08
0 2012-04-26 06:14:08
0 2012-04-26 06:15:08
0 2012-04-26 06:16:09
0 2012-04-26 06:17:08
0 2012-04-26 06:18:08
1 2012-04-26 06:19:08
0 2012-04-26 06:20:08
0 2012-04-26 06:21:08
0 2012-04-26 06:22:08
0 2012-04-26 06:23:08
0 2012-04-26 06:24:08
0 2012-04-26 06:25:08
0 2012-04-26 06:26:08
0 2012-04-26 06:27:08
0 2012-04-26 06:28:08
1 2012-04-26 06:29:08
0 2012-04-26 06:30:08
0 2012-04-26 06:31:08
0 2012-04-26 06:32:08
0 2012-04-26 06:33:08
0 2012-04-26 06:34:08
0 2012-04-26 06:35:08
0 2012-04-26 06:36:08
0 2012-04-26 06:37:08
0 2012-04-26 06:38:08
0 2012-04-26 06:39:08
0 2012-04-26 06:40:09
0 2012-04-26 06:41:08
0 2012-04-26 06:42:08
0 2012-04-26 06:43:08
0 2012-04-26 06:44:08
1 2012-04-26 06:45:08
0 2012-04-26 06:46:08
0 2012-04-26 06:47:08
0 2012-04-26 06:48:08
0 2012-04-26 06:49:08
0 2012-04-26 06:50:08
0 2012-04-26 06:51:08
0 2012-04-26 06:52:08
0 2012-04-26 06:53:08
0 2012-04-26 06:54:08
0 2012-04-26 06:55:08
0 2012-04-26 06:56:08
0 2012-04-26 06:57:08
0 2012-04-26 06:58:08
0 2012-04-26 06:59:08
0 2012-04-26 07:00:08
0 2012-04-26 07:01:08
0 2012-04-26 07:02:08
0 2012-04-26 07:03:08
0 2012-04-26 07:04:08
0 2012-04-26 07:05:08
0 2012-04-26 07:06:08
0 2012-04-26 07:07:08
0 2012-04-26 07:08:08
0 2012-04-26 07:09:08
0 2012-04-26 07:10:08
0 2012-04-26 07:11:08
0 2012-04-26 07:12:08
0 2012-04-26 07:13:08
0 2012-04-26 07:14:08
0 2012-04-26 07:15:08
0 2012-04-26 07:16:08
0 2012-04-26 07:17:08
0 2012-04-26 07:18:08
0 2012-04-26 07:19:08
0 2012-04-26 07:20:08
0 2012-04-26 07:21:08
0 2012-04-26 07:22:08
0 2012-04-26 07:23:08
0 2012-04-26 07:24:08
0 2012-04-26 07:25:08
0 2012-04-26 07:26:08
0 2012-04-26 07:27:09
0 2012-04-26 07:28:08
0 2012-04-26 07:29:09
0 2012-04-26 07:30:09
0 2012-04-26 07:31:08
0 2012-04-26 07:32:08
0 2012-04-26 07:33:09
0 2012-04-26 07:34:09
0 2012-04-26 07:35:09
0 2012-04-26 07:36:09
0 2012-04-26 07:37:09
0 2012-04-26 07:38:09
0 2012-04-26 07:39:09
0 2012-04-26 07:40:09
0 2012-04-26 07:41:09
0 2012-04-26 07:42:09
0 2012-04-26 07:43:09
0 2012-04-26 07:44:09
0 2012-04-26 07:45:09
0 2012-04-26 07:46:09
0 2012-04-26 07:47:09
0 2012-04-26 07:48:09
0 2012-04-26 07:49:09
0 2012-04-26 07:50:09
0 2012-04-26 07:51:09
0 2012-04-26 07:52:09
0 2012-04-26 07:53:09
0 2012-04-26 07:54:09
0 2012-04-26 07:55:09
0 2012-04-26 07:56:09
0 2012-04-26 07:57:09
0 2012-04-26 07:58:09
0 2012-04-26 07:59:09
0 2012-04-26 08:00:09
0 2012-04-26 08:01:09
0 2012-04-26 08:02:09
0 2012-04-26 08:03:09
0 2012-04-26 08:04:09
0 2012-04-26 08:05:09
0 2012-04-26 08:06:09
0 2012-04-26 08:07:09
0 2012-04-26 08:08:09
0 2012-04-26 08:09:09
0 2012-04-26 08:10:09
0 2012-04-26 08:11:09
0 2012-04-26 08:12:09
0 2012-04-26 08:13:09
0 2012-04-26 08:14:09
0 2012-04-26 08:15:09
0 2012-04-26 08:16:09
0 2012-04-26 08:17:09
0 2012-04-26 08:18:09
0 2012-04-26 08:19:09
0 2012-04-26 08:20:09
0 2012-04-26 08:21:09
0 2012-04-26 08:22:09
0 2012-04-26 08:23:09
0 2012-04-26 08:24:09
0 2012-04-26 08:25:09
0 2012-04-26 08:26:09
0 2012-04-26 08:27:09
0 2012-04-26 08:28:09
0 2012-04-26 08:29:09
0 2012-04-26 08:30:09
0 2012-04-26 08:31:09
0 2012-04-26 08:32:09
0 2012-04-26 08:33:09
0 2012-04-26 08:34:09
0 2012-04-26 08:35:09
0 2012-04-26 08:36:09
0 2012-04-26 08:37:09
0 2012-04-26 08:38:09
0 2012-04-26 08:39:09
0 2012-04-26 08:40:09
0 2012-04-26 08:41:09
0 2012-04-26 08:42:09
0 2012-04-26 08:43:09
1 2012-04-26 08:44:09
0 2012-04-26 08:45:09
0 2012-04-26 08:46:09
0 2012-04-26 08:47:09
0 2012-04-26 08:48:09
1 2012-04-26 08:49:09
0 2012-04-26 08:50:09
0 2012-04-26 08:51:09
0 2012-04-26 08:52:09
0 2012-04-26 08:53:09
0 2012-04-26 08:54:09
0 2012-04-26 08:55:09
0 2012-04-26 08:56:09
0 2012-04-26 08:57:09
0 2012-04-26 08:58:09
0 2012-04-26 08:59:09
0 2012-04-26 09:00:09
0 2012-04-26 09:01:09
0 2012-04-26 09:02:09
0 2012-04-26 09:03:09
0 2012-04-26 09:04:09
0 2012-04-26 09:05:09
0 2012-04-26 09:06:09
0 2012-04-26 09:07:09
0 2012-04-26 09:08:09
0 2012-04-26 09:09:09
0 2012-04-26 09:10:09
0 2012-04-26 09:11:09
0 2012-04-26 09:12:09
0 2012-04-26 09:13:09
0 2012-04-26 09:14:09
0 2012-04-26 09:15:09
0 2012-04-26 09:16:09
0 2012-04-26 09:17:09
0 2012-04-26 09:18:09
0 2012-04-26 09:19:09
0 2012-04-26 09:20:09
0 2012-04-26 09:21:09
0 2012-04-26 09:22:09
0 2012-04-26 09:23:09
0 2012-04-26 09:24:09
0 2012-04-26 09:25:09
0 2012-04-26 09:26:09
0 2012-04-26 09:27:09
0 2012-04-26 09:28:09
0 2012-04-26 09:29:09
0 2012-04-26 09:30:09
0 2012-04-26 09:31:09
0 2012-04-26 09:32:09
0 2012-04-26 09:33:09
0 2012-04-26 09:34:09
0 2012-04-26 09:35:09
0 2012-04-26 09:36:09
0 2012-04-26 09:37:09
0 2012-04-26 09:38:09
0 2012-04-26 09:39:09
0 2012-04-26 09:40:09
0 2012-04-26 09:41:09
0 2012-04-26 09:42:09
0 2012-04-26 09:43:09
0 2012-04-26 09:44:09
0 2012-04-26 09:45:09
0 2012-04-26 09:46:09
0 2012-04-26 09:47:09
0 2012-04-26 09:48:09
0 2012-04-26 09:49:09
0 2012-04-26 09:50:09
0 2012-04-26 09:51:09
0 2012-04-26 09:52:09
0 2012-04-26 09:53:09
0 2012-04-26 09:54:09
0 2012-04-26 09:55:09
0 2012-04-26 09:56:09
0 2012-04-26 09:57:09
0 2012-04-26 09:58:09
0 2012-04-26 09:59:09
0 2012-04-26 10:00:09
0 2012-04-26 10:01:09
0 2012-04-26 10:02:09
0 2012-04-26 10:03:09
0 2012-04-26 10:04:09
0 2012-04-26 10:05:09
0 2012-04-26 10:06:09
0 2012-04-26 10:07:09
0 2012-04-26 10:08:09
0 2012-04-26 10:09:09
0 2012-04-26 10:10:09
0 2012-04-26 10:11:09
0 2012-04-26 10:12:09
0 2012-04-26 10:13:09
0 2012-04-26 10:14:09
0 2012-04-26 10:15:09
0 2012-04-26 10:16:09
0 2012-04-26 10:17:09
0 2012-04-26 10:18:09
0 2012-04-26 10:19:09
0 2012-04-26 10:20:09
0 2012-04-26 10:21:09
0 2012-04-26 10:22:09
0 2012-04-26 10:23:09
0 2012-04-26 10:24:09
0 2012-04-26 10:25:09
0 2012-04-26 10:26:09
0 2012-04-26 10:27:09
0 2012-04-26 10:28:09
0 2012-04-26 10:29:09
0 2012-04-26 10:30:09
0 2012-04-26 10:31:09
0 2012-04-26 10:32:09
0 2012-04-26 10:33:09
0 2012-04-26 10:34:09
0 2012-04-26 10:35:09
0 2012-04-26 10:36:09
0 2012-04-26 10:37:09
0 2012-04-26 10:38:09
0 2012-04-26 10:39:09
0 2012-04-26 10:40:09
0 2012-04-26 10:41:09
0 2012-04-26 10:42:09
0 2012-04-26 10:43:09
1 2012-04-26 10:44:09
0 2012-04-26 10:45:09
0 2012-04-26 10:46:09
0 2012-04-26 10:47:09
0 2012-04-26 10:48:09
0 2012-04-26 10:49:09
0 2012-04-26 10:50:09
0 2012-04-26 10:51:09
0 2012-04-26 10:52:09
0 2012-04-26 10:53:09
0 2012-04-26 10:54:09
0 2012-04-26 10:55:09
0 2012-04-26 10:56:09
0 2012-04-26 10:57:09
0 2012-04-26 10:58:09
0 2012-04-26 10:59:09
0 2012-04-26 11:00:09
0 2012-04-26 11:01:09
0 2012-04-26 11:02:09
0 2012-04-26 11:03:09
0 2012-04-26 11:04:09
0 2012-04-26 11:05:09
0 2012-04-26 11:06:09
0 2012-04-26 11:07:09
0 2012-04-26 11:08:09
0 2012-04-26 11:09:09
0 2012-04-26 11:10:09
0 2012-04-26 11:11:09
0 2012-04-26 11:12:09
0 2012-04-26 11:13:09
1 2012-04-26 11:14:09
0 2012-04-26 11:15:09
0 2012-04-26 11:16:09
0 2012-04-26 11:17:09
0 2012-04-26 11:18:09
0 2012-04-26 11:19:09
0 2012-04-26 11:20:09
0 2012-04-26 11:21:09
0 2012-04-26 11:22:09
0 2012-04-26 11:23:09
0 2012-04-26 11:24:09
0 2012-04-26 11:25:09
0 2012-04-26 11:26:09
0 2012-04-26 11:27:09
0 2012-04-26 11:28:09
0 2012-04-26 11:29:09
0 2012-04-26 11:30:09
0 2012-04-26 11:31:09
0 2012-04-26 11:32:09
0 2012-04-26 11:33:09
1 2012-04-26 11:34:09
0 2012-04-26 11:35:09
0 2012-04-26 11:36:09
0 2012-04-26 11:37:09
0 2012-04-26 11:38:09
0 2012-04-26 11:39:09
0 2012-04-26 11:40:09
0 2012-04-26 11:41:09
0 2012-04-26 11:42:09
0 2012-04-26 11:43:09
0 2012-04-26 11:44:09
0 2012-04-26 11:45:09
0 2012-04-26 11:46:09
0 2012-04-26 11:47:09
0 2012-04-26 11:48:09
0 2012-04-26 11:49:09
0 2012-04-26 11:50:09
0 2012-04-26 11:51:09
0 2012-04-26 11:52:09
0 2012-04-26 11:53:09
0 2012-04-26 11:54:09
0 2012-04-26 11:55:09
0 2012-04-26 11:56:09
0 2012-04-26 11:57:09
0 2012-04-26 11:58:09
0 2012-04-26 11:59:09
0 2012-04-26 12:00:09
0 2012-04-26 12:01:09
0 2012-04-26 12:02:09
0 2012-04-26 12:03:09
0 2012-04-26 12:04:09
0 2012-04-26 12:05:09
0 2012-04-26 12:06:09
0 2012-04-26 12:07:09
0 2012-04-26 12:08:09
0 2012-04-26 12:09:09
0 2012-04-26 12:10:09
0 2012-04-26 12:11:09
0 2012-04-26 12:12:09
0 2012-04-26 12:13:09
0 2012-04-26 12:14:09
0 2012-04-26 12:15:09
0 2012-04-26 12:16:09
0 2012-04-26 12:17:09
0 2012-04-26 12:18:09
0 2012-04-26 12:19:09
0 2012-04-26 12:20:09
0 2012-04-26 12:21:09
0 2012-04-26 12:22:09
0 2012-04-26 12:23:09
0 2012-04-26 12:24:09
0 2012-04-26 12:25:09
0 2012-04-26 12:26:09
0 2012-04-26 12:27:09
0 2012-04-26 12:28:09
0 2012-04-26 12:29:09
0 2012-04-26 12:30:09
0 2012-04-26 12:31:09
0 2012-04-26 12:32:09
0 2012-04-26 12:33:09
0 2012-04-26 12:34:09
0 2012-04-26 12:35:09
1 2012-04-26 12:36:09
0 2012-04-26 12:37:09
0 2012-04-26 12:38:09
0 2012-04-26 12:39:09
0 2012-04-26 12:40:09
0 2012-04-26 12:41:09
0 2012-04-26 12:42:09
0 2012-04-26 12:43:09
0 2012-04-26 12:44:09
0 2012-04-26 12:45:09
0 2012-04-26 12:46:09
0 2012-04-26 12:47:09
0 2012-04-26 12:48:09
0 2012-04-26 12:49:09
0 2012-04-26 12:50:09
0 2012-04-26 12:51:09
0 2012-04-26 12:52:09
0 2012-04-26 12:53:09
0 2012-04-26 12:54:09
0 2012-04-26 12:55:09
0 2012-04-26 12:56:09
0 2012-04-26 12:57:09
0 2012-04-26 12:58:09
0 2012-04-26 12:59:09
0 2012-04-26 13:00:09
0 2012-04-26 13:01:09
0 2012-04-26 13:02:09
0 2012-04-26 13:03:09
0 2012-04-26 13:04:09
0 2012-04-26 13:05:09
0 2012-04-26 13:06:09
0 2012-04-26 13:07:09
0 2012-04-26 13:08:09
0 2012-04-26 13:09:09
0 2012-04-26 13:10:09
0 2012-04-26 13:11:09
0 2012-04-26 13:12:09
0 2012-04-26 13:13:09
0 2012-04-26 13:14:09
1 2012-04-26 13:15:09
0 2012-04-26 13:16:09
1 2012-04-26 13:17:09
0 2012-04-26 13:18:09
0 2012-04-26 13:19:09
0 2012-04-26 13:20:09
0 2012-04-26 13:21:09
1 2012-04-26 13:22:09
0 2012-04-26 13:23:09
0 2012-04-26 13:24:09
0 2012-04-26 13:25:09
3 2012-04-26 13:26:09
0 2012-04-26 13:27:09
0 2012-04-26 13:28:09
0 2012-04-26 13:29:09
0 2012-04-26 13:30:09
0 2012-04-26 13:31:09
0 2012-04-26 13:32:09
0 2012-04-26 13:33:09
0 2012-04-26 13:34:09
0 2012-04-26 13:35:09
0 2012-04-26 13:36:09
0 2012-04-26 13:37:09
0 2012-04-26 13:38:09
0 2012-04-26 13:39:09
0 2012-04-26 13:40:09
0 2012-04-26 13:41:09
0 2012-04-26 13:42:09
0 2012-04-26 13:43:09
0 2012-04-26 13:44:09
0 2012-04-26 13:45:09
0 2012-04-26 13:46:09
0 2012-04-26 13:47:09
0 2012-04-26 13:48:09
0 2012-04-26 13:49:09
0 2012-04-26 13:50:09
0 2012-04-26 13:51:09
0 2012-04-26 13:52:09
0 2012-04-26 13:53:09
0 2012-04-26 13:54:09
0 2012-04-26 13:55:09
0 2012-04-26 13:56:09
0 2012-04-26 13:57:09
0 2012-04-26 13:58:09
0 2012-04-26 13:59:09
0 2012-04-26 14:00:09
0 2012-04-26 14:01:09
0 2012-04-26 14:02:09
0 2012-04-26 14:03:09
0 2012-04-26 14:04:09
0 2012-04-26 14:05:09
0 2012-04-26 14:06:09
0 2012-04-26 14:07:09
0 2012-04-26 14:08:09
0 2012-04-26 14:09:09
0 2012-04-26 14:10:09
0 2012-04-26 14:11:09
0 2012-04-26 14:12:09
0 2012-04-26 14:13:09
0 2012-04-26 14:14:09
0 2012-04-26 14:15:09
0 2012-04-26 14:16:09
0 2012-04-26 14:17:09
0 2012-04-26 14:18:09
0 2012-04-26 14:19:09
0 2012-04-26 14:20:09
1 2012-04-26 14:21:09
0 2012-04-26 14:22:09
0 2012-04-26 14:23:09
0 2012-04-26 14:24:09
0 2012-04-26 14:25:09
0 2012-04-26 14:26:09
0 2012-04-26 14:27:09
0 2012-04-26 14:28:09
0 2012-04-26 14:29:09
0 2012-04-26 14:30:09
0 2012-04-26 14:31:09
0 2012-04-26 14:32:09
0 2012-04-26 14:33:09
0 2012-04-26 14:34:09
0 2012-04-26 14:35:09
0 2012-04-26 14:36:09
0 2012-04-26 14:37:09
0 2012-04-26 14:38:09
0 2012-04-26 14:39:09
0 2012-04-26 14:40:09
0 2012-04-26 14:41:09
0 2012-04-26 14:42:09
0 2012-04-26 14:43:09
0 2012-04-26 14:44:09
0 2012-04-26 14:45:09
0 2012-04-26 14:46:09
0 2012-04-26 14:47:09
0 2012-04-26 14:48:09
1 2012-04-26 14:49:09
0 2012-04-26 14:50:09
0 2012-04-26 14:51:09
0 2012-04-26 14:52:09
0 2012-04-26 14:53:09
0 2012-04-26 14:54:09
0 2012-04-26 14:55:09
0 2012-04-26 14:56:09
0 2012-04-26 14:57:09
0 2012-04-26 14:58:09
0 2012-04-26 14:59:09
0 2012-04-26 15:00:09
0 2012-04-26 15:01:09
0 2012-04-26 15:02:09
0 2012-04-26 15:03:09
0 2012-04-26 15:04:09
0 2012-04-26 15:05:09
0 2012-04-26 15:06:09
0 2012-04-26 15:07:09
0 2012-04-26 15:08:09
0 2012-04-26 15:09:09
0 2012-04-26 15:10:09
0 2012-04-26 15:11:09
0 2012-04-26 15:12:09
0 2012-04-26 15:13:09
0 2012-04-26 15:14:09
0 2012-04-26 15:15:09
0 2012-04-26 15:16:09
0 2012-04-26 15:17:09
0 2012-04-26 15:18:09
0 2012-04-26 15:19:09
0 2012-04-26 15:20:09
0 2012-04-26 15:21:09
0 2012-04-26 15:22:09
0 2012-04-26 15:23:09
0 2012-04-26 15:24:09
0 2012-04-26 15:25:09
0 2012-04-26 15:26:09
0 2012-04-26 15:27:09
0 2012-04-26 15:28:09
0 2012-04-26 15:29:09
0 2012-04-26 15:30:09
0 2012-04-26 15:31:09
0 2012-04-26 15:32:09
0 2012-04-26 15:33:09
0 2012-04-26 15:34:09
0 2012-04-26 15:35:09
0 2012-04-26 15:36:09
0 2012-04-26 15:37:09
0 2012-04-26 15:38:09
0 2012-04-26 15:39:09
0 2012-04-26 15:40:09
0 2012-04-26 15:41:09
0 2012-04-26 15:42:09
0 2012-04-26 15:43:09
0 2012-04-26 15:44:09
0 2012-04-26 15:45:09
0 2012-04-26 15:46:09
0 2012-04-26 15:47:09
0 2012-04-26 15:48:09
0 2012-04-26 15:49:09
0 2012-04-26 15:50:09
0 2012-04-26 15:51:09
0 2012-04-26 15:52:09
0 2012-04-26 15:53:09
0 2012-04-26 15:54:09
0 2012-04-26 15:55:09
0 2012-04-26 15:56:09
0 2012-04-26 15:57:09
0 2012-04-26 15:58:09
0 2012-04-26 15:59:09
0 2012-04-26 16:00:09
0 2012-04-26 16:01:09
0 2012-04-26 16:02:09
0 2012-04-26 16:03:09
0 2012-04-26 16:04:09
0 2012-04-26 16:05:09
0 2012-04-26 16:06:09
0 2012-04-26 16:07:09
0 2012-04-26 16:08:09
0 2012-04-26 16:09:09
0 2012-04-26 16:10:09
0 2012-04-26 16:11:09
0 2012-04-26 16:12:09
0 2012-04-26 16:13:09
0 2012-04-26 16:14:09
1 2012-04-26 16:15:09
0 2012-04-26 16:16:09
0 2012-04-26 16:17:09
0 2012-04-26 16:18:09
0 2012-04-26 16:19:09
0 2012-04-26 16:20:09
0 2012-04-26 16:21:09
0 2012-04-26 16:22:09
0 2012-04-26 16:23:09
0 2012-04-26 16:24:09
0 2012-04-26 16:25:09
0 2012-04-26 16:26:09
0 2012-04-26 16:27:09
1 2012-04-26 16:28:10
0 2012-04-26 16:29:10
0 2012-04-26 16:30:10
0 2012-04-26 16:31:10
0 2012-04-26 16:32:10
0 2012-04-26 16:33:09
0 2012-04-26 16:34:09
0 2012-04-26 16:35:09
0 2012-04-26 16:36:09
0 2012-04-26 16:37:09
0 2012-04-26 16:38:09
0 2012-04-26 16:39:09
0 2012-04-26 16:40:09
0 2012-04-26 16:41:09
0 2012-04-26 16:42:09
0 2012-04-26 16:43:09
0 2012-04-26 16:44:09
0 2012-04-26 16:45:09
0 2012-04-26 16:46:09
0 2012-04-26 16:47:09
0 2012-04-26 16:48:09
0 2012-04-26 16:49:09
0 2012-04-26 16:50:09
0 2012-04-26 16:51:09
0 2012-04-26 16:52:09
0 2012-04-26 16:53:09
0 2012-04-26 16:54:09
0 2012-04-26 16:55:09
0 2012-04-26 16:56:09
0 2012-04-26 16:57:09
0 2012-04-26 16:58:09
0 2012-04-26 16:59:09
0 2012-04-26 17:00:09
0 2012-04-26 17:01:09
0 2012-04-26 17:02:09
0 2012-04-26 17:03:10
0 2012-04-26 17:04:09
0 2012-04-26 17:05:09
0 2012-04-26 17:06:09
0 2012-04-26 17:07:09
0 2012-04-26 17:08:09
0 2012-04-26 17:09:09
0 2012-04-26 17:10:09
0 2012-04-26 17:11:09
0 2012-04-26 17:12:09
0 2012-04-26 17:13:09
0 2012-04-26 17:14:09
0 2012-04-26 17:15:09
0 2012-04-26 17:16:09
0 2012-04-26 17:17:09
0 2012-04-26 17:18:09
0 2012-04-26 17:19:09
0 2012-04-26 17:20:09
0 2012-04-26 17:21:09
0 2012-04-26 17:22:09
0 2012-04-26 17:23:09
0 2012-04-26 17:24:09
0 2012-04-26 17:25:09
0 2012-04-26 17:26:09
0 2012-04-26 17:27:09
0 2012-04-26 17:28:09
0 2012-04-26 17:29:09
0 2012-04-26 17:30:09
0 2012-04-26 17:31:09
0 2012-04-26 17:32:09
0 2012-04-26 17:33:09
0 2012-04-26 17:34:09
0 2012-04-26 17:35:09
0 2012-04-26 17:36:09
0 2012-04-26 17:37:09
0 2012-04-26 17:38:09
0 2012-04-26 17:39:09
0 2012-04-26 17:40:09
0 2012-04-26 17:41:09
0 2012-04-26 17:42:09
0 2012-04-26 17:43:09
0 2012-04-26 17:44:09
0 2012-04-26 17:45:09
0 2012-04-26 17:46:09
0 2012-04-26 17:47:09
0 2012-04-26 17:48:09
0 2012-04-26 17:49:09
0 2012-04-26 17:50:09
0 2012-04-26 17:51:09
0 2012-04-26 17:52:09
0 2012-04-26 17:53:09
0 2012-04-26 17:54:09
0 2012-04-26 17:55:09
0 2012-04-26 17:56:09
0 2012-04-26 17:57:09
0 2012-04-26 17:58:09
0 2012-04-26 17:59:09
0 2012-04-26 18:00:09
0 2012-04-26 18:01:09
0 2012-04-26 18:02:09
0 2012-04-26 18:03:09
0 2012-04-26 18:04:09
1 2012-04-26 18:05:09
0 2012-04-26 18:06:09
0 2012-04-26 18:07:09
0 2012-04-26 18:08:09
0 2012-04-26 18:09:09
0 2012-04-26 18:10:09
0 2012-04-26 18:11:09
0 2012-04-26 18:12:09
0 2012-04-26 18:13:09
0 2012-04-26 18:14:09
0 2012-04-26 18:15:10
0 2012-04-26 18:16:09
0 2012-04-26 18:17:10
0 2012-04-26 18:18:10
0 2012-04-26 18:19:10
0 2012-04-26 18:20:10
0 2012-04-26 18:21:10
0 2012-04-26 18:22:10
0 2012-04-26 18:23:10
0 2012-04-26 18:24:10
0 2012-04-26 18:25:10
0 2012-04-26 18:26:10
0 2012-04-26 18:27:10
0 2012-04-26 18:28:10
0 2012-04-26 18:29:10
0 2012-04-26 18:30:10
0 2012-04-26 18:31:10
0 2012-04-26 18:32:10
0 2012-04-26 18:33:10
0 2012-04-26 18:34:10
0 2012-04-26 18:35:10
0 2012-04-26 18:36:10
0 2012-04-26 18:37:10
0 2012-04-26 18:38:10
0 2012-04-26 18:39:10
0 2012-04-26 18:40:10
0 2012-04-26 18:41:10
0 2012-04-26 18:42:10
0 2012-04-26 18:43:10
0 2012-04-26 18:44:10
0 2012-04-26 18:45:10
0 2012-04-26 18:46:10
0 2012-04-26 18:47:10
0 2012-04-26 18:48:10
0 2012-04-26 18:49:10
0 2012-04-26 18:50:10
0 2012-04-26 18:51:10
0 2012-04-26 18:52:10
0 2012-04-26 18:53:10
0 2012-04-26 18:54:10
0 2012-04-26 18:55:10
0 2012-04-26 18:56:10
0 2012-04-26 18:57:10
0 2012-04-26 18:58:10
0 2012-04-26 18:59:10
0 2012-04-26 19:00:10
0 2012-04-26 19:01:10
0 2012-04-26 19:02:10
0 2012-04-26 19:03:10
0 2012-04-26 19:04:10
0 2012-04-26 19:05:10
0 2012-04-26 19:06:10
0 2012-04-26 19:07:10
0 2012-04-26 19:08:10
0 2012-04-26 19:09:10
1 2012-04-26 19:10:10
0 2012-04-26 19:11:10
0 2012-04-26 19:12:10
0 2012-04-26 19:13:10
0 2012-04-26 19:14:10
0 2012-04-26 19:15:10
0 2012-04-26 19:16:10
0 2012-04-26 19:17:10
0 2012-04-26 19:18:10
0 2012-04-26 19:19:10
0 2012-04-26 19:20:10
0 2012-04-26 19:21:10
0 2012-04-26 19:22:10
0 2012-04-26 19:23:10
0 2012-04-26 19:24:10
0 2012-04-26 19:25:10
0 2012-04-26 19:26:10
0 2012-04-26 19:27:10
0 2012-04-26 19:28:10
0 2012-04-26 19:29:10
0 2012-04-26 19:30:10
0 2012-04-26 19:31:10
0 2012-04-26 19:32:10
0 2012-04-26 19:33:10
0 2012-04-26 19:34:10
0 2012-04-26 19:35:10
0 2012-04-26 19:36:10
0 2012-04-26 19:37:10
0 2012-04-26 19:38:10
0 2012-04-26 19:39:10
0 2012-04-26 19:40:10
0 2012-04-26 19:41:10
0 2012-04-26 19:42:10
0 2012-04-26 19:43:10
0 2012-04-26 19:44:10
0 2012-04-26 19:45:10
0 2012-04-26 19:46:10
0 2012-04-26 19:47:10
0 2012-04-26 19:48:10
0 2012-04-26 19:49:10
0 2012-04-26 19:50:10
0 2012-04-26 19:51:10
0 2012-04-26 19:52:10
0 2012-04-26 19:53:10
0 2012-04-26 19:54:10
0 2012-04-26 19:55:10
0 2012-04-26 19:56:10
0 2012-04-26 19:57:10
0 2012-04-26 19:58:10
0 2012-04-26 19:59:10
0 2012-04-26 20:00:10
0 2012-04-26 20:01:10
0 2012-04-26 20:02:10
0 2012-04-26 20:03:10
0 2012-04-26 20:04:10
0 2012-04-26 20:05:10
0 2012-04-26 20:06:10
0 2012-04-26 20:07:10
0 2012-04-26 20:08:10
0 2012-04-26 20:09:10
0 2012-04-26 20:10:10
0 2012-04-26 20:11:10
0 2012-04-26 20:12:10
0 2012-04-26 20:13:10
0 2012-04-26 20:14:10
0 2012-04-26 20:15:10
0 2012-04-26 20:16:10
0 2012-04-26 20:17:10
0 2012-04-26 20:18:10
0 2012-04-26 20:19:10
0 2012-04-26 20:20:10
0 2012-04-26 20:21:10
0 2012-04-26 20:22:10
0 2012-04-26 20:23:10
0 2012-04-26 20:24:10
0 2012-04-26 20:25:10
0 2012-04-26 20:26:10
0 2012-04-26 20:27:10
0 2012-04-26 20:28:10
0 2012-04-26 20:29:10
0 2012-04-26 20:30:10
0 2012-04-26 20:31:10
0 2012-04-26 20:32:10
0 2012-04-26 20:33:10
0 2012-04-26 20:34:10
0 2012-04-26 20:35:10
0 2012-04-26 20:36:10
0 2012-04-26 20:37:10
0 2012-04-26 20:38:10
0 2012-04-26 20:39:10
0 2012-04-26 20:40:10
0 2012-04-26 20:41:10
0 2012-04-26 20:42:10
0 2012-04-26 20:43:10
1 2012-04-26 20:44:10
0 2012-04-26 20:45:10
0 2012-04-26 20:46:10
0 2012-04-26 20:47:10
0 2012-04-26 20:48:10
0 2012-04-26 20:49:10
0 2012-04-26 20:50:10
0 2012-04-26 20:51:10
0 2012-04-26 20:52:10
0 2012-04-26 20:53:10
0 2012-04-26 20:54:10
0 2012-04-26 20:55:10
0 2012-04-26 20:56:10
0 2012-04-26 20:57:10
0 2012-04-26 20:58:10
0 2012-04-26 20:59:10
0 2012-04-26 21:00:10
0 2012-04-26 21:01:10
0 2012-04-26 21:02:10
0 2012-04-26 21:03:10
0 2012-04-26 21:04:10
0 2012-04-26 21:05:10
0 2012-04-26 21:06:10
0 2012-04-26 21:07:10
0 2012-04-26 21:08:10
0 2012-04-26 21:09:10
0 2012-04-26 21:10:10
0 2012-04-26 21:11:10
0 2012-04-26 21:12:10
0 2012-04-26 21:13:10
0 2012-04-26 21:14:10
0 2012-04-26 21:15:10
0 2012-04-26 21:16:10
0 2012-04-26 21:17:10
0 2012-04-26 21:18:10
0 2012-04-26 21:19:10
0 2012-04-26 21:20:10
0 2012-04-26 21:21:10
0 2012-04-26 21:22:10
0 2012-04-26 21:23:10
0 2012-04-26 21:24:10
0 2012-04-26 21:25:10
0 2012-04-26 21:26:10
0 2012-04-26 21:27:10
0 2012-04-26 21:28:10
0 2012-04-26 21:29:10
0 2012-04-26 21:30:10
0 2012-04-26 21:31:10
0 2012-04-26 21:32:10
0 2012-04-26 21:33:10
0 2012-04-26 21:34:10
0 2012-04-26 21:35:10
0 2012-04-26 21:36:10
0 2012-04-26 21:37:10
0 2012-04-26 21:38:10
0 2012-04-26 21:39:10
0 2012-04-26 21:40:10
0 2012-04-26 21:41:10
0 2012-04-26 21:42:10
0 2012-04-26 21:43:10
0 2012-04-26 21:44:14
0 2012-04-26 21:45:10
0 2012-04-26 21:46:10
0 2012-04-26 21:47:10
0 2012-04-26 21:48:10
0 2012-04-26 21:49:10
0 2012-04-26 21:50:10
0 2012-04-26 21:51:10
0 2012-04-26 21:52:10
0 2012-04-26 21:53:10
0 2012-04-26 21:54:10
0 2012-04-26 21:55:10
0 2012-04-26 21:56:10
0 2012-04-26 21:57:10
0 2012-04-26 21:58:10
0 2012-04-26 21:59:10
0 2012-04-26 22:00:10
0 2012-04-26 22:01:10
0 2012-04-26 22:02:10
0 2012-04-26 22:03:10
0 2012-04-26 22:04:10
0 2012-04-26 22:05:10
0 2012-04-26 22:06:10
1 2012-04-26 22:07:10
0 2012-04-26 22:08:10
0 2012-04-26 22:09:10
0 2012-04-26 22:10:10
0 2012-04-26 22:11:10
0 2012-04-26 22:12:10
0 2012-04-26 22:13:10
0 2012-04-26 22:14:10
0 2012-04-26 22:15:10
0 2012-04-26 22:16:10
0 2012-04-26 22:17:10
0 2012-04-26 22:18:10
0 2012-04-26 22:19:10
0 2012-04-26 22:20:10
0 2012-04-26 22:21:10
0 2012-04-26 22:22:10
0 2012-04-26 22:23:10
0 2012-04-26 22:24:10
0 2012-04-26 22:25:10
0 2012-04-26 22:26:10
0 2012-04-26 22:27:10
0 2012-04-26 22:28:10
0 2012-04-26 22:29:10
0 2012-04-26 22:30:10
0 2012-04-26 22:31:10
0 2012-04-26 22:32:10
0 2012-04-26 22:33:10
0 2012-04-26 22:34:10
0 2012-04-26 22:35:10
0 2012-04-26 22:36:10
0 2012-04-26 22:37:10
0 2012-04-26 22:38:10
0 2012-04-26 22:39:10
0 2012-04-26 22:40:10
0 2012-04-26 22:41:10
0 2012-04-26 22:42:10
0 2012-04-26 22:43:10
0 2012-04-26 22:44:10
0 2012-04-26 22:45:10
0 2012-04-26 22:46:10
0 2012-04-26 22:47:10
0 2012-04-26 22:48:10
0 2012-04-26 22:49:10
0 2012-04-26 22:50:10
0 2012-04-26 22:51:10
0 2012-04-26 22:52:10
0 2012-04-26 22:53:10
0 2012-04-26 22:54:10
0 2012-04-26 22:55:10
0 2012-04-26 22:56:10
0 2012-04-26 22:57:10
0 2012-04-26 22:58:10
0 2012-04-26 22:59:10
0 2012-04-26 23:00:10
0 2012-04-26 23:01:10
0 2012-04-26 23:02:10
0 2012-04-26 23:03:10
0 2012-04-26 23:04:10
0 2012-04-26 23:05:10
0 2012-04-26 23:06:10
0 2012-04-26 23:07:10
0 2012-04-26 23:08:10
0 2012-04-26 23:09:10
0 2012-04-26 23:10:10
0 2012-04-26 23:11:10
0 2012-04-26 23:12:10
0 2012-04-26 23:13:10
0 2012-04-26 23:14:10
0 2012-04-26 23:15:10
0 2012-04-26 23:16:10
0 2012-04-26 23:17:10
0 2012-04-26 23:18:10
0 2012-04-26 23:19:10
0 2012-04-26 23:20:10
0 2012-04-26 23:21:10
0 2012-04-26 23:22:10
0 2012-04-26 23:23:10
0 2012-04-26 23:24:10
0 2012-04-26 23:25:10
0 2012-04-26 23:26:10
0 2012-04-26 23:27:10
0 2012-04-26 23:28:10
0 2012-04-26 23:29:10
0 2012-04-26 23:30:10
0 2012-04-26 23:31:10
0 2012-04-26 23:32:10
0 2012-04-26 23:33:10
0 2012-04-26 23:34:10
0 2012-04-26 23:35:10
0 2012-04-26 23:36:10
0 2012-04-26 23:37:10
0 2012-04-26 23:38:10
0 2012-04-26 23:39:10
0 2012-04-26 23:40:10
0 2012-04-26 23:41:10
0 2012-04-26 23:42:10
0 2012-04-26 23:43:10
0 2012-04-26 23:44:10
0 2012-04-26 23:45:10
0 2012-04-26 23:46:10
0 2012-04-26 23:47:10
0 2012-04-26 23:48:10
0 2012-04-26 23:49:10
0 2012-04-26 23:50:10
0 2012-04-26 23:51:10
0 2012-04-26 23:52:10
0 2012-04-26 23:53:10
0 2012-04-26 23:54:10
0 2012-04-26 23:55:10
0 2012-04-26 23:56:10
0 2012-04-26 23:57:10
0 2012-04-26 23:58:10
0 2012-04-26 23:59:10
0 2012-04-27 00:00:10
0 2012-04-27 00:01:10
0 2012-04-27 00:02:10
0 2012-04-27 00:03:10
0 2012-04-27 00:04:10
0 2012-04-27 00:05:10
0 2012-04-27 00:06:10
0 2012-04-27 00:07:10
0 2012-04-27 00:08:10
0 2012-04-27 00:09:10
0 2012-04-27 00:10:10
0 2012-04-27 00:11:10
0 2012-04-27 00:12:10
0 2012-04-27 00:13:10
0 2012-04-27 00:14:10
0 2012-04-27 00:15:10
0 2012-04-27 00:16:10
0 2012-04-27 00:17:10
0 2012-04-27 00:18:10
0 2012-04-27 00:19:10
0 2012-04-27 00:20:10
0 2012-04-27 00:21:10
0 2012-04-27 00:22:10
0 2012-04-27 00:23:10
0 2012-04-27 00:24:10
0 2012-04-27 00:25:10
0 2012-04-27 00:26:10
0 2012-04-27 00:27:10
0 2012-04-27 00:28:10
0 2012-04-27 00:29:10
0 2012-04-27 00:30:10
0 2012-04-27 00:31:10
0 2012-04-27 00:32:10
0 2012-04-27 00:33:10
0 2012-04-27 00:34:10
0 2012-04-27 00:35:10
0 2012-04-27 00:36:10
0 2012-04-27 00:37:10
0 2012-04-27 00:38:10
0 2012-04-27 00:39:10
0 2012-04-27 00:40:10
0 2012-04-27 00:41:10
0 2012-04-27 00:42:10
0 2012-04-27 00:43:10
0 2012-04-27 00:44:10
0 2012-04-27 00:45:10
0 2012-04-27 00:46:10
0 2012-04-27 00:47:10
0 2012-04-27 00:48:10
0 2012-04-27 00:49:10
0 2012-04-27 00:50:10
0 2012-04-27 00:51:10
0 2012-04-27 00:52:10
0 2012-04-27 00:53:10
0 2012-04-27 00:54:10
0 2012-04-27 00:55:10
0 2012-04-27 00:56:10
0 2012-04-27 00:57:10
0 2012-04-27 00:58:10
0 2012-04-27 00:59:10
0 2012-04-27 01:00:10
0 2012-04-27 01:01:10
0 2012-04-27 01:02:10
0 2012-04-27 01:03:10
0 2012-04-27 01:04:10
0 2012-04-27 01:05:10
0 2012-04-27 01:06:10
0 2012-04-27 01:07:10
0 2012-04-27 01:08:10
0 2012-04-27 01:09:10
0 2012-04-27 01:10:10
0 2012-04-27 01:11:10
0 2012-04-27 01:12:10
0 2012-04-27 01:13:10
0 2012-04-27 01:14:10
0 2012-04-27 01:15:10
0 2012-04-27 01:16:10
0 2012-04-27 01:17:10
0 2012-04-27 01:18:10
0 2012-04-27 01:19:10
0 2012-04-27 01:20:10
0 2012-04-27 01:21:10
0 2012-04-27 01:22:10
0 2012-04-27 01:23:10
0 2012-04-27 01:24:10
0 2012-04-27 01:25:10
0 2012-04-27 01:26:10
0 2012-04-27 01:27:10
0 2012-04-27 01:28:10
0 2012-04-27 01:29:10
0 2012-04-27 01:30:10
0 2012-04-27 01:31:10
0 2012-04-27 01:32:10
0 2012-04-27 01:33:10
0 2012-04-27 01:34:10
0 2012-04-27 01:35:10
0 2012-04-27 01:36:10
0 2012-04-27 01:37:10
0 2012-04-27 01:38:10
0 2012-04-27 01:39:10
0 2012-04-27 01:40:10
0 2012-04-27 01:41:10
1 2012-04-27 01:42:10
0 2012-04-27 01:43:10
0 2012-04-27 01:44:10
0 2012-04-27 01:45:10
0 2012-04-27 01:46:10
0 2012-04-27 01:47:10
0 2012-04-27 01:48:10
0 2012-04-27 01:49:10
0 2012-04-27 01:50:10
0 2012-04-27 01:51:10
0 2012-04-27 01:52:10
0 2012-04-27 01:53:10
0 2012-04-27 01:54:10
0 2012-04-27 01:55:10
0 2012-04-27 01:56:10
0 2012-04-27 01:57:10
0 2012-04-27 01:58:10
0 2012-04-27 01:59:10
0 2012-04-27 02:00:10
0 2012-04-27 02:01:10
0 2012-04-27 02:02:10
0 2012-04-27 02:03:10
0 2012-04-27 02:04:10
0 2012-04-27 02:05:10
0 2012-04-27 02:06:10
0 2012-04-27 02:07:10
0 2012-04-27 02:08:10
1 2012-04-27 02:09:10
0 2012-04-27 02:10:10
0 2012-04-27 02:11:10
0 2012-04-27 02:12:10
0 2012-04-27 02:13:10
0 2012-04-27 02:14:10
0 2012-04-27 02:15:10
0 2012-04-27 02:16:10
0 2012-04-27 02:17:10
1 2012-04-27 02:18:10
0 2012-04-27 02:19:10
0 2012-04-27 02:20:10
0 2012-04-27 02:21:10
0 2012-04-27 02:22:10
0 2012-04-27 02:23:10
0 2012-04-27 02:24:10
0 2012-04-27 02:25:10
0 2012-04-27 02:26:10
1 2012-04-27 02:27:10
0 2012-04-27 02:28:10
0 2012-04-27 02:29:10
0 2012-04-27 02:30:10
0 2012-04-27 02:31:10
0 2012-04-27 02:32:10
0 2012-04-27 02:33:10
0 2012-04-27 02:34:10
0 2012-04-27 02:35:10
0 2012-04-27 02:36:10
0 2012-04-27 02:37:10
0 2012-04-27 02:38:10
0 2012-04-27 02:39:10
0 2012-04-27 02:40:10
0 2012-04-27 02:41:10
0 2012-04-27 02:42:10
0 2012-04-27 02:43:10
0 2012-04-27 02:44:10
0 2012-04-27 02:45:10
0 2012-04-27 02:46:10
0 2012-04-27 02:47:10
0 2012-04-27 02:48:10
0 2012-04-27 02:49:10
0 2012-04-27 02:50:10
0 2012-04-27 02:51:10
0 2012-04-27 02:52:10
0 2012-04-27 02:53:10
0 2012-04-27 02:54:10
0 2012-04-27 02:55:10
0 2012-04-27 02:56:10
0 2012-04-27 02:57:11
0 2012-04-27 02:58:14
0 2012-04-27 02:59:10
0 2012-04-27 03:00:10
0 2012-04-27 03:01:10
0 2012-04-27 03:02:10
0 2012-04-27 03:03:10
0 2012-04-27 03:04:10
0 2012-04-27 03:05:10
0 2012-04-27 03:06:10
0 2012-04-27 03:07:10
0 2012-04-27 03:08:11
0 2012-04-27 03:09:10
0 2012-04-27 03:10:10
0 2012-04-27 03:11:10
0 2012-04-27 03:12:11
0 2012-04-27 03:13:10
0 2012-04-27 03:14:10
0 2012-04-27 03:15:10
0 2012-04-27 03:16:10
0 2012-04-27 03:17:10
0 2012-04-27 03:18:10
0 2012-04-27 03:19:10
0 2012-04-27 03:20:10
0 2012-04-27 03:21:10
0 2012-04-27 03:22:10
0 2012-04-27 03:23:10
0 2012-04-27 03:24:10
0 2012-04-27 03:25:10
0 2012-04-27 03:26:10
0 2012-04-27 03:27:10
0 2012-04-27 03:28:10
0 2012-04-27 03:29:10
0 2012-04-27 03:30:10
0 2012-04-27 03:31:10
0 2012-04-27 03:32:10
0 2012-04-27 03:33:10
0 2012-04-27 03:34:10
0 2012-04-27 03:35:10
0 2012-04-27 03:36:10
1 2012-04-27 03:37:10
1 2012-04-27 03:38:10
0 2012-04-27 03:39:10
0 2012-04-27 03:40:10
0 2012-04-27 03:41:10
0 2012-04-27 03:42:10
0 2012-04-27 03:43:10
0 2012-04-27 03:44:10
0 2012-04-27 03:45:10
0 2012-04-27 03:46:10
0 2012-04-27 03:47:10
0 2012-04-27 03:48:10
0 2012-04-27 03:49:10
0 2012-04-27 03:50:10
0 2012-04-27 03:51:10
0 2012-04-27 03:52:10
0 2012-04-27 03:53:10
0 2012-04-27 03:54:10
0 2012-04-27 03:55:10
0 2012-04-27 03:56:10
0 2012-04-27 03:57:10
0 2012-04-27 03:58:10
0 2012-04-27 03:59:10
0 2012-04-27 04:00:10
0 2012-04-27 04:01:10
0 2012-04-27 04:02:10
0 2012-04-27 04:03:10
0 2012-04-27 04:04:10
0 2012-04-27 04:05:10
0 2012-04-27 04:06:10
0 2012-04-27 04:07:10
0 2012-04-27 04:08:10
0 2012-04-27 04:09:10
0 2012-04-27 04:10:10
0 2012-04-27 04:11:10
0 2012-04-27 04:12:10
0 2012-04-27 04:13:10
0 2012-04-27 04:14:10
0 2012-04-27 04:15:10
0 2012-04-27 04:16:10
0 2012-04-27 04:17:10
0 2012-04-27 04:18:10
0 2012-04-27 04:19:10
0 2012-04-27 04:20:10
0 2012-04-27 04:21:10
0 2012-04-27 04:22:10
0 2012-04-27 04:23:10
0 2012-04-27 04:24:10
0 2012-04-27 04:25:10
0 2012-04-27 04:26:10
0 2012-04-27 04:27:10
0 2012-04-27 04:28:11
0 2012-04-27 04:29:11
0 2012-04-27 04:30:11
0 2012-04-27 04:31:11
0 2012-04-27 04:32:11
2 2012-04-27 04:33:11
0 2012-04-27 04:34:11
0 2012-04-27 04:35:11
0 2012-04-27 04:36:11
0 2012-04-27 04:37:11
0 2012-04-27 04:38:11
0 2012-04-27 04:39:11
0 2012-04-27 04:40:11
0 2012-04-27 04:41:11
0 2012-04-27 04:42:11
0 2012-04-27 04:43:11
0 2012-04-27 04:44:11
0 2012-04-27 04:45:11
0 2012-04-27 04:46:11
0 2012-04-27 04:47:11
0 2012-04-27 04:48:11
0 2012-04-27 04:49:11
0 2012-04-27 04:50:11
0 2012-04-27 04:51:11
0 2012-04-27 04:52:11
0 2012-04-27 04:53:11
0 2012-04-27 04:54:11
0 2012-04-27 04:55:11
0 2012-04-27 04:56:11
0 2012-04-27 04:57:11
0 2012-04-27 04:58:11
0 2012-04-27 04:59:11
0 2012-04-27 05:00:11
0 2012-04-27 05:01:11
0 2012-04-27 05:02:11
0 2012-04-27 05:03:11
0 2012-04-27 05:04:11
0 2012-04-27 05:05:11
0 2012-04-27 05:06:11
0 2012-04-27 05:07:11
0 2012-04-27 05:08:11
0 2012-04-27 05:09:11
0 2012-04-27 05:10:11
0 2012-04-27 05:11:11
0 2012-04-27 05:12:11
0 2012-04-27 05:13:11
0 2012-04-27 05:14:11
0 2012-04-27 05:15:11
0 2012-04-27 05:16:11
0 2012-04-27 05:17:11
1 2012-04-27 05:18:11
0 2012-04-27 05:19:11
0 2012-04-27 05:20:11
0 2012-04-27 05:21:11
0 2012-04-27 05:22:11
0 2012-04-27 05:23:11
0 2012-04-27 05:24:11
0 2012-04-27 05:25:11
0 2012-04-27 05:26:11
0 2012-04-27 05:27:11
0 2012-04-27 05:28:11
0 2012-04-27 05:29:11
0 2012-04-27 05:30:11
0 2012-04-27 05:31:11
0 2012-04-27 05:32:11
0 2012-04-27 05:33:11
0 2012-04-27 05:34:11
0 2012-04-27 05:35:11
0 2012-04-27 05:36:11
0 2012-04-27 05:37:11
0 2012-04-27 05:38:11
0 2012-04-27 05:39:11
0 2012-04-27 05:40:11
0 2012-04-27 05:41:11
0 2012-04-27 05:42:11
0 2012-04-27 05:43:11
0 2012-04-27 05:44:11
0 2012-04-27 05:45:11
0 2012-04-27 05:46:11
0 2012-04-27 05:47:11
0 2012-04-27 05:48:11
0 2012-04-27 05:49:11
0 2012-04-27 05:50:11
0 2012-04-27 05:51:11
0 2012-04-27 05:52:11
0 2012-04-27 05:53:11
0 2012-04-27 05:54:11
0 2012-04-27 05:55:11
0 2012-04-27 05:56:11
0 2012-04-27 05:57:11
0 2012-04-27 05:58:11
0 2012-04-27 05:59:11
4 2012-04-27 06:00:11
0 2012-04-27 06:01:11
0 2012-04-27 06:02:11
0 2012-04-27 06:03:11
0 2012-04-27 06:04:11
0 2012-04-27 06:05:11
0 2012-04-27 06:06:11
0 2012-04-27 06:07:11
0 2012-04-27 06:08:11
0 2012-04-27 06:09:11
0 2012-04-27 06:10:11
0 2012-04-27 06:11:11
0 2012-04-27 06:12:11
0 2012-04-27 06:13:11
0 2012-04-27 06:14:11
0 2012-04-27 06:15:11
0 2012-04-27 06:16:11
0 2012-04-27 06:17:11
0 2012-04-27 06:18:11
0 2012-04-27 06:19:11
0 2012-04-27 06:20:11
0 2012-04-27 06:21:11
0 2012-04-27 06:22:11
0 2012-04-27 06:23:11
0 2012-04-27 06:24:11
0 2012-04-27 06:25:11
0 2012-04-27 06:26:11
0 2012-04-27 06:27:11
0 2012-04-27 06:28:11
0 2012-04-27 06:29:11
0 2012-04-27 06:30:11
0 2012-04-27 06:31:11
0 2012-04-27 06:32:11
0 2012-04-27 06:33:11
0 2012-04-27 06:34:11
0 2012-04-27 06:35:11
0 2012-04-27 06:36:11
0 2012-04-27 06:37:11
0 2012-04-27 06:38:11
0 2012-04-27 06:39:11
0 2012-04-27 06:40:11
0 2012-04-27 06:41:11
0 2012-04-27 06:42:11
0 2012-04-27 06:43:11
0 2012-04-27 06:44:11
0 2012-04-27 06:45:11
0 2012-04-27 06:46:11
0 2012-04-27 06:47:11
0 2012-04-27 06:48:11
0 2012-04-27 06:49:11
0 2012-04-27 06:50:11
0 2012-04-27 06:51:11
0 2012-04-27 06:52:11
0 2012-04-27 06:53:11
0 2012-04-27 06:54:11
0 2012-04-27 06:55:11
0 2012-04-27 06:56:11
0 2012-04-27 06:57:11
0 2012-04-27 06:58:11
0 2012-04-27 06:59:11
0 2012-04-27 07:00:11
0 2012-04-27 07:01:11
0 2012-04-27 07:02:11
0 2012-04-27 07:03:11
0 2012-04-27 07:04:11
0 2012-04-27 07:05:11
0 2012-04-27 07:06:11
0 2012-04-27 07:07:11
0 2012-04-27 07:08:11
0 2012-04-27 07:09:11
0 2012-04-27 07:10:11
0 2012-04-27 07:11:11
0 2012-04-27 07:12:11
0 2012-04-27 07:13:11
0 2012-04-27 07:14:11
1 2012-04-27 07:15:11
0 2012-04-27 07:16:11
0 2012-04-27 07:17:11
0 2012-04-27 07:18:11
0 2012-04-27 07:19:11
0 2012-04-27 07:20:11
0 2012-04-27 07:21:11
0 2012-04-27 07:22:11
0 2012-04-27 07:23:11
0 2012-04-27 07:24:11
0 2012-04-27 07:25:11
0 2012-04-27 07:26:11
0 2012-04-27 07:27:11
0 2012-04-27 07:28:11
0 2012-04-27 07:29:11
0 2012-04-27 07:30:11
0 2012-04-27 07:31:11
0 2012-04-27 07:32:11
0 2012-04-27 07:33:11
0 2012-04-27 07:34:11
0 2012-04-27 07:35:11
0 2012-04-27 07:36:11
0 2012-04-27 07:37:11
0 2012-04-27 07:38:11
0 2012-04-27 07:39:11
0 2012-04-27 07:40:11
0 2012-04-27 07:41:11
0 2012-04-27 07:42:11
0 2012-04-27 07:43:11
0 2012-04-27 07:44:11
0 2012-04-27 07:45:11
0 2012-04-27 07:46:11
0 2012-04-27 07:47:11
0 2012-04-27 07:48:11
0 2012-04-27 07:49:11
0 2012-04-27 07:50:11
0 2012-04-27 07:51:11
0 2012-04-27 07:52:11
0 2012-04-27 07:53:11
0 2012-04-27 07:54:11
0 2012-04-27 07:55:11
0 2012-04-27 07:56:11
0 2012-04-27 07:57:11
0 2012-04-27 07:58:11
0 2012-04-27 07:59:11
0 2012-04-27 08:00:11
0 2012-04-27 08:01:11
0 2012-04-27 08:02:11
0 2012-04-27 08:03:11
0 2012-04-27 08:04:11
0 2012-04-27 08:05:11
0 2012-04-27 08:06:11
0 2012-04-27 08:07:11
0 2012-04-27 08:08:11
0 2012-04-27 08:09:11
0 2012-04-27 08:10:11
0 2012-04-27 08:11:12
0 2012-04-27 08:12:11
0 2012-04-27 08:13:11
0 2012-04-27 08:14:11
0 2012-04-27 08:15:11
0 2012-04-27 08:16:11
0 2012-04-27 08:17:11
0 2012-04-27 08:18:11
0 2012-04-27 08:19:11
0 2012-04-27 08:20:11
0 2012-04-27 08:21:11
0 2012-04-27 08:22:11
0 2012-04-27 08:23:11
0 2012-04-27 08:24:11
0 2012-04-27 08:25:11
0 2012-04-27 08:26:11
1 2012-04-27 08:27:11
0 2012-04-27 08:28:11
0 2012-04-27 08:29:11
0 2012-04-27 08:30:11
0 2012-04-27 08:31:11
0 2012-04-27 08:32:11
0 2012-04-27 08:33:11
0 2012-04-27 08:34:11
0 2012-04-27 08:35:11
1 2012-04-27 08:36:11
0 2012-04-27 08:37:11
0 2012-04-27 08:38:11
0 2012-04-27 08:39:11
0 2012-04-27 08:40:11
0 2012-04-27 08:41:11
0 2012-04-27 08:42:11
0 2012-04-27 08:43:11
0 2012-04-27 08:44:11
0 2012-04-27 08:45:11
0 2012-04-27 08:46:11
0 2012-04-27 08:47:11
0 2012-04-27 08:48:11
0 2012-04-27 08:49:11
0 2012-04-27 08:50:11
0 2012-04-27 08:51:11
0 2012-04-27 08:52:11
0 2012-04-27 08:53:11
0 2012-04-27 08:54:11
0 2012-04-27 08:55:11
0 2012-04-27 08:56:11
0 2012-04-27 08:57:11
0 2012-04-27 08:58:11
0 2012-04-27 08:59:11
0 2012-04-27 09:00:11
0 2012-04-27 09:01:11
0 2012-04-27 09:02:11
0 2012-04-27 09:03:11
0 2012-04-27 09:04:11
0 2012-04-27 09:05:11
0 2012-04-27 09:06:11
0 2012-04-27 09:07:11
0 2012-04-27 09:08:11
0 2012-04-27 09:09:11
0 2012-04-27 09:10:11
0 2012-04-27 09:11:11
0 2012-04-27 09:12:11
0 2012-04-27 09:13:11
0 2012-04-27 09:14:11
0 2012-04-27 09:15:11
0 2012-04-27 09:16:11
0 2012-04-27 09:17:11
0 2012-04-27 09:18:11
0 2012-04-27 09:19:11
0 2012-04-27 09:20:11
0 2012-04-27 09:21:11
0 2012-04-27 09:22:11
0 2012-04-27 09:23:11
0 2012-04-27 09:24:11
0 2012-04-27 09:25:11
0 2012-04-27 09:26:11
0 2012-04-27 09:27:11
0 2012-04-27 09:28:11
0 2012-04-27 09:29:11
0 2012-04-27 09:30:11
0 2012-04-27 09:31:11
0 2012-04-27 09:32:11
0 2012-04-27 09:33:11
0 2012-04-27 09:34:11
0 2012-04-27 09:35:11
0 2012-04-27 09:36:11
0 2012-04-27 09:37:11
0 2012-04-27 09:38:11
0 2012-04-27 09:39:11
